Monitor bus sniffs/mash_dim.vcd
$timescale 1 ns $end
$scope module top $end
$var wire 1 ! Channel_2 $end
$var wire 1 " Channel_4 $end
$upscope $end
$enddefinitions $end
#112415083
0!
0"
#112415291
1!
#112419500
0!
#112419666
1!
#112420083
0!
#112534083
1!
#112534708
0!
#112535291
1!
#112535708
0!
#112537291
1!
#112541500
0!
#112541708
1!
#112542125
0!
#112658500
1!
#112659125
0!
#112659708
1!
#112660125
0!
#112661708
1!
#112665916
0!
#112666125
1!
#112666541
0!
#112782916
1!
#112783541
0!
#112784125
1!
#112784541
0!
#112786125
1!
#112790333
0!
#112790541
1!
#112790958
0!
#112907750
1!
#112908375
0!
#112908958
1!
#112909375
0!
#112910958
1!
#112915166
0!
#112915333
1!
#112915791
0!
#113029750
1!
#113030375
0!
#113030958
1!
#113031375
0!
#113032958
1!
#113037208
0!
#113037375
1!
#113037791
0!
#113151791
1!
#113152416
0!
#113152958
1!
#113153416
0!
#113154958
1!
#113159208
0!
#113159375
1!
#113159791
0!
#113273791
1!
#113274416
0!
#113275000
1!
#113275416
0!
#113277000
1!
#113281208
0!
#113281375
1!
#113281833
0!
#113395791
1!
#113396416
0!
#113397000
1!
#113397416
0!
#113399000
1!
#113403250
0!
#113403416
1!
#113403833
0!
#113517833
1!
#113518458
0!
#113519041
1!
#113519458
0!
#113521041
1!
#113525250
0!
#113525416
1!
#113525875
0!
#113639833
1!
#113640458
0!
#113641041
1!
#113641458
0!
#113643041
1!
#113647291
0!
#113647458
1!
#113647875
0!
#113764666
1!
#113765291
0!
#113765875
1!
#113766291
0!
#113767875
1!
#113772083
0!
#113772250
1!
#113772708
0!
#113889875
1!
#113890500
0!
#113891083
1!
#113891500
0!
#113893083
1!
#113897291
0!
#113897458
1!
#113897916
0!
#114013291
1!
#114013916
0!
#114014500
1!
#114014916
0!
#114016500
1!
#114020708
0!
#114020875
1!
#114021333
0!
#114135291
1!
#114135958
0!
#114136500
1!
#114136958
0!
#114138500
1!
#114142750
0!
#114142916
1!
#114143333
0!
#114257333
1!
#114257958
0!
#114258541
1!
#114258958
0!
#114260541
1!
#114264750
0!
#114264916
1!
#114265375
0!
#114379333
1!
#114379958
0!
#114380541
1!
#114380958
0!
#114382541
1!
#114386791
0!
#114386958
1!
#114387375
0!
#114501375
1!
#114502000
0!
#114502541
1!
#114503000
0!
#114504541
1!
#114508791
0!
#114508958
1!
#114509375
0!
#114623375
1!
#114624000
0!
#114624583
1!
#114625000
0!
#114626583
1!
#114630791
0!
#114630958
1!
#114631416
0!
#114747791
1!
#114748416
0!
#114749000
1!
#114749416
0!
#114751000
1!
#114755208
0!
#114755375
1!
#114755833
0!
#114872208
1!
#114872833
0!
#114873416
1!
#114873833
0!
#114875416
1!
#114879625
0!
#114879791
1!
#114880250
0!
#114997041
1!
#114997666
0!
#114998208
1!
#114998666
0!
#115000208
1!
#115004458
0!
#115004625
1!
#115005041
0!
#115119041
1!
#115119666
0!
#115120250
1!
#115120666
0!
#115122250
1!
#115126458
0!
#115126625
1!
#115127083
0!
#115241041
1!
#115241708
0!
#115242250
1!
#115242708
0!
#115244250
1!
#115248500
0!
#115248666
1!
#115249083
0!
#115363083
1!
#115363708
0!
#115364291
1!
#115364708
0!
#115366291
1!
#115370500
0!
#115370666
1!
#115371125
0!
#115485083
1!
#115485708
0!
#115486291
1!
#115486708
0!
#115488291
1!
#115492541
0!
#115492708
1!
#115493125
0!
#115607125
1!
#115607750
0!
#115608291
1!
#115608750
0!
#115610291
1!
#115614541
0!
#115614708
1!
#115615125
0!
#115729125
1!
#115729750
0!
#115730333
1!
#115730750
0!
#115732333
1!
#115736541
0!
#115736708
1!
#115737166
0!
#115853958
1!
#115854583
0!
#115855125
1!
#115855583
0!
#115857125
1!
#115861375
0!
#115861541
1!
#115861958
0!
#115978958
1!
#115979583
0!
#115980166
1!
#115980583
0!
#115982166
1!
#115986375
0!
#115986541
1!
#115987000
0!
#116102583
1!
#116103208
0!
#116103791
1!
#116104208
0!
#116105791
1!
#116110000
0!
#116110166
1!
#116110625
0!
#116224583
1!
#116225208
0!
#116225791
1!
#116226208
0!
#116227791
1!
#116232041
0!
#116232208
1!
#116232625
0!
#116346625
1!
#116347250
0!
#116347791
1!
#116348250
0!
#116349791
1!
#116354041
0!
#116354208
1!
#116354625
0!
#116468625
1!
#116469250
0!
#116469833
1!
#116470250
0!
#116471833
1!
#116476041
0!
#116476208
1!
#116476666
0!
#116590625
1!
#116591291
0!
#116591833
1!
#116592291
0!
#116593833
1!
#116598083
0!
#116598250
1!
#116598666
0!
#116712666
1!
#116713291
0!
#116713875
1!
#116714291
0!
#116715875
1!
#116720083
0!
#116720250
1!
#116720708
0!
#116837083
1!
#116837708
0!
#116838291
1!
#116838708
0!
#116840291
1!
#116844500
0!
#116844666
1!
#116845125
0!
#116961500
1!
#116962125
0!
#116962708
1!
#116963125
0!
#116964708
1!
#116968916
0!
#116969083
1!
#116969541
0!
#117086291
1!
#117086958
0!
#117087500
1!
#117087958
0!
#117089500
1!
#117093750
0!
#117093916
1!
#117094333
0!
#117208333
1!
#117208958
0!
#117209541
1!
#117209958
0!
#117211541
1!
#117215750
0!
#117215916
1!
#117216375
0!
#117330333
1!
#117330958
0!
#117331541
1!
#117331958
0!
#117333541
1!
#117337791
0!
#117337958
1!
#117338375
0!
#117452375
1!
#117453000
0!
#117453541
1!
#117454000
0!
#117455541
1!
#117459791
0!
#117459958
1!
#117460375
0!
#117574375
1!
#117575000
0!
#117575583
1!
#117576000
0!
#117577583
1!
#117581791
0!
#117582000
1!
#117582416
0!
#117696375
1!
#117697041
0!
#117697583
1!
#117698041
0!
#117699583
1!
#117703833
0!
#117704000
1!
#117704416
0!
#117818416
1!
#117819041
0!
#117819625
1!
#117820041
0!
#117821625
1!
#117825833
0!
#117826000
1!
#117826458
0!
#117943250
1!
#117943875
0!
#117944416
1!
#117944875
0!
#117946416
1!
#117950666
0!
#117950833
1!
#117951250
0!
#118068250
1!
#118068875
0!
#118069458
1!
#118069875
0!
#118071458
1!
#118075666
0!
#118075833
1!
#118076291
0!
#118191875
1!
#118192500
0!
#118193083
1!
#118193500
0!
#118195083
1!
#118199291
0!
#118199458
1!
#118199916
0!
#118313875
1!
#118314500
0!
#118315083
1!
#118315500
0!
#118317083
1!
#118321333
0!
#118321500
1!
#118321916
0!
#118435916
1!
#118436541
0!
#118437083
1!
#118437541
0!
#118439083
1!
#118443333
0!
#118443500
1!
#118443916
0!
#118557916
1!
#118558541
0!
#118559125
1!
#118559541
0!
#118561125
1!
#118565333
0!
#118565500
1!
#118565958
0!
#118679916
1!
#118680541
0!
#118681125
1!
#118681541
0!
#118683125
1!
#118687375
0!
#118687541
1!
#118687958
0!
#118801958
1!
#118802583
0!
#118803166
1!
#118803583
0!
#118805166
1!
#118809375
0!
#118809541
1!
#118810000
0!
#118926375
1!
#118927000
0!
#118927583
1!
#118928000
0!
#118929583
1!
#118933791
0!
#118933958
1!
#118934416
0!
#119050583
1!
#119051208
0!
#119051791
1!
#119052208
0!
#119053791
1!
#119058000
0!
#119058166
1!
#119058625
0!
#119175416
1!
#119176041
0!
#119176583
1!
#119177041
0!
#119178583
1!
#119182833
0!
#119183000
1!
#119183416
0!
#119297416
1!
#119298041
0!
#119298625
1!
#119299041
0!
#119300625
1!
#119304833
0!
#119305000
1!
#119305458
0!
#119419416
1!
#119420083
0!
#119420625
1!
#119421083
0!
#119422625
1!
#119426875
0!
#119427041
1!
#119427458
0!
#119541458
1!
#119542083
0!
#119542666
1!
#119543083
0!
#119544666
1!
#119548875
0!
#119549041
1!
#119549500
0!
#119663458
1!
#119664083
0!
#119664666
1!
#119665083
0!
#119666666
1!
#119670916
0!
#119671083
1!
#119671500
0!
#119785500
1!
#119786125
0!
#119786666
1!
#119787125
0!
#119788666
1!
#119792916
0!
#119793083
1!
#119793500
0!
#119907500
1!
#119908125
0!
#119908708
1!
#119909125
0!
#119910708
1!
#119914916
0!
#119915083
1!
#119915541
0!
#120032500
1!
#120033166
0!
#120033708
1!
#120034166
0!
#120035708
1!
#120039958
0!
#120040125
1!
#120040541
0!
#120157541
1!
#120158166
0!
#120158750
1!
#120159166
0!
#120160750
1!
#120164958
0!
#120165125
1!
#120165583
0!
#120280958
1!
#120281583
0!
#120282166
1!
#120282583
0!
#120284166
1!
#120288375
0!
#120288541
1!
#120289000
0!
#120402958
1!
#120403583
0!
#120404166
1!
#120404583
0!
#120406166
1!
#120410416
0!
#120410583
1!
#120411000
0!
#120525000
1!
#120525625
0!
#120526166
1!
#120526625
0!
#120528166
1!
#120532416
0!
#120532583
1!
#120533000
0!
#120647000
1!
#120647625
0!
#120648208
1!
#120648625
0!
#120650208
1!
#120654416
0!
#120654583
1!
#120655041
0!
#120769000
1!
#120769666
0!
#120770208
1!
#120770666
0!
#120772208
1!
#120776458
0!
#120776625
1!
#120777041
0!
#120891041
1!
#120891666
0!
#120892250
1!
#120892666
0!
#120894250
1!
#120898458
0!
#120898625
1!
#120899083
0!
#121015458
1!
#121016083
0!
#121016666
1!
#121017083
0!
#121018666
1!
#121022875
0!
#121023041
1!
#121023500
0!
#121139875
1!
#121140500
0!
#121141083
1!
#121141500
0!
#121143083
1!
#121147291
0!
#121147458
1!
#121147916
0!
#121264666
1!
#121265333
0!
#121265875
1!
#121266333
0!
#121267875
1!
#121272125
0!
#121272291
1!
#121272708
0!
#121386708
1!
#121387333
0!
#121387916
1!
#121388333
0!
#121389916
1!
#121394125
0!
#121394291
1!
#121394750
0!
#121508708
1!
#121509333
0!
#121509916
1!
#121510333
0!
#121511916
1!
#121516166
0!
#121516333
1!
#121516750
0!
#121630750
1!
#121631375
0!
#121631916
1!
#121632375
0!
#121633916
1!
#121638166
0!
#121638333
1!
#121638750
0!
#121752750
1!
#121753375
0!
#121753958
1!
#121754375
0!
#121755958
1!
#121760166
0!
#121760333
1!
#121760791
0!
#121874750
1!
#121875416
0!
#121875958
1!
#121876416
0!
#121877958
1!
#121882208
0!
#121882375
1!
#121882791
0!
#121996791
1!
#121997416
0!
#121998000
1!
#121998416
0!
#122000000
1!
#122004208
0!
#122004375
1!
#122004833
0!
#122121583
1!
#122122250
0!
#122122791
1!
#122123250
0!
#122124791
1!
#122129041
0!
#122129208
1!
#122129625
0!
#122246833
1!
#122247458
0!
#122248000
1!
#122248458
0!
#122250000
1!
#122254250
0!
#122254416
1!
#122254833
0!
#122370250
1!
#122370875
0!
#122371416
1!
#122371875
0!
#122373416
1!
#122377666
0!
#122377833
1!
#122378250
0!
#122492250
1!
#122492875
0!
#122493458
1!
#122493875
0!
#122495458
1!
#122499666
0!
#122499875
1!
#122500291
0!
#122614250
1!
#122614916
0!
#122615458
1!
#122615916
0!
#122617458
1!
#122621708
0!
#122621875
1!
#122622291
0!
#122736291
1!
#122736916
0!
#122737500
1!
#122737916
0!
#122739500
1!
#122743708
0!
#122743875
1!
#122744333
0!
#122858291
1!
#122858916
0!
#122859500
1!
#122859916
0!
#122861500
1!
#122865750
0!
#122865916
1!
#122866333
0!
#122980333
1!
#122980958
0!
#122981500
1!
#122981958
0!
#122983500
1!
#122987750
0!
#122987916
1!
#122988333
0!
#123104750
1!
#123105375
0!
#123105916
1!
#123106375
0!
#123107958
1!
#123112166
0!
#123112333
1!
#123112750
0!
#123229166
1!
#123229791
0!
#123230375
1!
#123230791
0!
#123232375
1!
#123236583
0!
#123236750
1!
#123237166
0!
#123353958
1!
#123354583
0!
#123355166
1!
#123355583
0!
#123357166
1!
#123361416
0!
#123361583
1!
#123362000
0!
#123476000
1!
#123476625
0!
#123477208
1!
#123477625
0!
#123479208
1!
#123483416
0!
#123483583
1!
#123484000
0!
#123598000
1!
#123598625
0!
#123599208
1!
#123599625
0!
#123601208
1!
#123605416
0!
#123605625
1!
#123606041
0!
#123720041
1!
#123720666
0!
#123721208
1!
#123721666
0!
#123723208
1!
#123727458
0!
#123727625
1!
#123728041
0!
#123842041
1!
#123842666
0!
#123843250
1!
#123843666
0!
#123845250
1!
#123849458
0!
#123849625
1!
#123850083
0!
#123964041
1!
#123964666
0!
#123965250
1!
#123965666
0!
#123967250
1!
#123971500
0!
#123971666
1!
#123972083
0!
#124086083
1!
#124086708
0!
#124087291
1!
#124087708
0!
#124089291
1!
#124093500
0!
#124093666
1!
#124094083
0!
#124210875
1!
#124211500
0!
#124212083
1!
#124212500
0!
#124214083
1!
#124218333
0!
#124218500
1!
#124218916
0!
#124336125
1!
#124336750
0!
#124337291
1!
#124337750
0!
#124339291
1!
#124343541
0!
#124343708
1!
#124344125
0!
#124459541
1!
#124460166
0!
#124460708
1!
#124461166
0!
#124462708
1!
#124466958
0!
#124467125
1!
#124467541
0!
#124581541
1!
#124582166
0!
#124582750
1!
#124583166
0!
#124584750
1!
#124588958
0!
#124589125
1!
#124589583
0!
#124703541
1!
#124704208
0!
#124704750
1!
#124705208
0!
#124706750
1!
#124711000
0!
#124711166
1!
#124711583
0!
#124825583
1!
#124826208
0!
#124826791
1!
#124827208
0!
#124828791
1!
#124833000
0!
#124833166
1!
#124833625
0!
#124947583
1!
#124948208
0!
#124948791
1!
#124949208
0!
#124950791
1!
#124955041
0!
#124955208
1!
#124955625
0!
#125069625
1!
#125070250
0!
#125070791
1!
#125071250
0!
#125072791
1!
#125077041
0!
#125077208
1!
#125077625
0!
#125194041
1!
#125194666
0!
#125195208
1!
#125195666
0!
#125197208
1!
#125201458
0!
#125201625
1!
#125202041
0!
#125318458
1!
#125319083
0!
#125319625
1!
#125320083
0!
#125321625
1!
#125325875
0!
#125326041
1!
#125326458
0!
#125443250
1!
#125443875
0!
#125444458
1!
#125444875
0!
#125446458
1!
#125450708
0!
#125450875
1!
#125451291
0!
#125565291
1!
#125565916
0!
#125566458
1!
#125566916
0!
#125568458
1!
#125572708
0!
#125572875
1!
#125573291
0!
#125687291
1!
#125687916
0!
#125688500
1!
#125688916
0!
#125690500
1!
#125694708
0!
#125694875
1!
#125695333
0!
#125809291
1!
#125809958
0!
#125810500
1!
#125810958
0!
#125812500
1!
#125816750
0!
#125816916
1!
#125817333
0!
#125931333
1!
#125931958
0!
#125932541
1!
#125932958
0!
#125934541
1!
#125938750
0!
#125938916
1!
#125939375
0!
#126053333
1!
#126053958
0!
#126054541
1!
#126054958
0!
#126056541
1!
#126060791
0!
#126060958
1!
#126061375
0!
#126175375
1!
#126176000
0!
#126176541
1!
#126177000
0!
#126178541
1!
#126182791
0!
#126182958
1!
#126183375
0!
#126300166
1!
#126300791
0!
#126301375
1!
#126301791
0!
#126303375
1!
#126307625
0!
#126307791
1!
#126308208
0!
#126425208
1!
#126425833
0!
#126426375
1!
#126426833
0!
#126428375
1!
#126432625
0!
#126432791
1!
#126433208
0!
#126548791
1!
#126549458
0!
#126550000
1!
#126550458
0!
#126552000
1!
#126556250
0!
#126556416
1!
#126556833
0!
#126670833
1!
#126671458
0!
#126672041
1!
#126672458
0!
#126674041
1!
#126678250
0!
#126678416
1!
#126678875
0!
#126792833
1!
#126793458
0!
#126794041
1!
#126794458
0!
#126796041
1!
#126800291
0!
#126800458
1!
#126800875
0!
#126914875
1!
#126915500
0!
#126916041
1!
#126916500
0!
#126918041
1!
#126922291
0!
#126922458
1!
#126922875
0!
#127036875
1!
#127037500
0!
#127038083
1!
#127038500
0!
#127040083
1!
#127044291
0!
#127044458
1!
#127044916
0!
#127158875
1!
#127159541
0!
#127160083
1!
#127160541
0!
#127162083
1!
#127166333
0!
#127166500
1!
#127166916
0!
#127283291
1!
#127283958
0!
#127284500
1!
#127284958
0!
#127286500
1!
#127290750
0!
#127290916
1!
#127291333
0!
#127407708
1!
#127408375
0!
#127408916
1!
#127409375
0!
#127410916
1!
#127415166
0!
#127415333
1!
#127415750
0!
#127532541
1!
#127533166
0!
#127533750
1!
#127534166
0!
#127535750
1!
#127539958
0!
#127540125
1!
#127540583
0!
#127654541
1!
#127655208
0!
#127655750
1!
#127656208
0!
#127657750
1!
#127662000
0!
#127662166
1!
#127662583
0!
#127776583
1!
#127777208
0!
#127777791
1!
#127778208
0!
#127779791
1!
#127784000
0!
#127784166
1!
#127784625
0!
#127898583
1!
#127899208
0!
#127899791
1!
#127900208
0!
#127901791
1!
#127906041
0!
#127906208
1!
#127906625
0!
#128020625
1!
#128021250
0!
#128021791
1!
#128022250
0!
#128023791
1!
#128028041
0!
#128028208
1!
#128028625
0!
#128142625
1!
#128143250
0!
#128143833
1!
#128144250
0!
#128145833
1!
#128150041
0!
#128150250
1!
#128150666
0!
#128264625
1!
#128265291
0!
#128265833
1!
#128266291
0!
#128267833
1!
#128272083
0!
#128272250
1!
#128272666
0!
#128389458
1!
#128390083
0!
#128390666
1!
#128391083
0!
#128392666
1!
#128396875
0!
#128397083
1!
#128397500
0!
#128514500
1!
#128515125
0!
#128515666
1!
#128516125
0!
#128517666
1!
#128521916
0!
#128522083
1!
#128522500
0!
#128638083
1!
#128638708
0!
#128639291
1!
#128639708
0!
#128641291
1!
#128645541
0!
#128645708
1!
#128646125
0!
#128760125
1!
#128760750
0!
#128761333
1!
#128761750
0!
#128763333
1!
#128767541
0!
#128767708
1!
#128768125
0!
#128882125
1!
#128882750
0!
#128883333
1!
#128883750
0!
#128885333
1!
#128889541
0!
#128889750
1!
#128890166
0!
#129004166
1!
#129004791
0!
#129005333
1!
#129005791
0!
#129007333
1!
#129011583
0!
#129011750
1!
#129012166
0!
#129126166
1!
#129126791
0!
#129127375
1!
#129127791
0!
#129129375
1!
#129133583
0!
#129133750
1!
#129134208
0!
#129248166
1!
#129248791
0!
#129249375
1!
#129249791
0!
#129251375
1!
#129255625
0!
#129255791
1!
#129256208
0!
#129372583
1!
#129373208
0!
#129373791
1!
#129374208
0!
#129375791
1!
#129380041
0!
#129380208
1!
#129380625
0!
#129496833
1!
#129497458
0!
#129498000
1!
#129498458
0!
#129500000
1!
#129504250
0!
#129504416
1!
#129504833
0!
#129621625
1!
#129622250
0!
#129622833
1!
#129623250
0!
#129624833
1!
#129629083
0!
#129629250
1!
#129629666
0!
#129743666
1!
#129744291
0!
#129744833
1!
#129745291
0!
#129746833
1!
#129751083
0!
#129751250
1!
#129751666
0!
#129865666
1!
#129866291
0!
#129866875
1!
#129867291
0!
#129868875
1!
#129873083
0!
#129873250
1!
#129873708
0!
#129987666
1!
#129988333
0!
#129988875
1!
#129989333
0!
#129990875
1!
#129995125
0!
#129995291
1!
#129995708
0!
#130109708
1!
#130110333
0!
#130110916
1!
#130111333
0!
#130112916
1!
#130117125
0!
#130117291
1!
#130117750
0!
#130231708
1!
#130232333
0!
#130232916
1!
#130233333
0!
#130234916
1!
#130239166
0!
#130239333
1!
#130239750
0!
#130353750
1!
#130354375
0!
#130354916
1!
#130355375
0!
#130356916
1!
#130361166
0!
#130361333
1!
#130361750
0!
#130478750
1!
#130479375
0!
#130479958
1!
#130480375
0!
#130481958
1!
#130486166
0!
#130486333
1!
#130486791
0!
#130603750
1!
#130604416
0!
#130604958
1!
#130605416
0!
#130606958
1!
#130611208
0!
#130611375
1!
#130611791
0!
#130727166
1!
#130727833
0!
#130728375
1!
#130728833
0!
#130730375
1!
#130734625
0!
#130734791
1!
#130735208
0!
#130849208
1!
#130849833
0!
#130850416
1!
#130850833
0!
#130852416
1!
#130856625
0!
#130856791
1!
#130857250
0!
#130971208
1!
#130971833
0!
#130972416
1!
#130972833
0!
#130974416
1!
#130978666
0!
#130978833
1!
#130979250
0!
#131093250
1!
#131093875
0!
#131094416
1!
#131094875
0!
#131096416
1!
#131100666
0!
#131100833
1!
#131101250
0!
#131215250
1!
#131215875
0!
#131216458
1!
#131216875
0!
#131218458
1!
#131222666
0!
#131222833
1!
#131223291
0!
#131337250
1!
#131337916
0!
#131338458
1!
#131338916
0!
#131340458
1!
#131344708
0!
#131344875
1!
#131345291
0!
#131461666
1!
#131462333
0!
#131462875
1!
#131463333
0!
#131464875
1!
#131469125
0!
#131469291
1!
#131469708
0!
#131586083
1!
#131586750
0!
#131587291
1!
#131587750
0!
#131589291
1!
#131593541
0!
#131593708
1!
#131594125
0!
#131710916
1!
#131711541
0!
#131712125
1!
#131712541
0!
#131714125
1!
#131718333
0!
#131718500
1!
#131718958
0!
#131832916
1!
#131833583
0!
#131834125
1!
#131834583
0!
#131836125
1!
#131840375
0!
#131840541
1!
#131840958
0!
#131954958
1!
#131955583
0!
#131956166
1!
#131956583
0!
#131958166
1!
#131962375
0!
#131962541
1!
#131963000
0!
#132076958
1!
#132077583
0!
#132078166
1!
#132078583
0!
#132080166
1!
#132084416
0!
#132084583
1!
#132085000
0!
#132199000
1!
#132199625
0!
#132200166
1!
#132200625
0!
#132202166
1!
#132206416
0!
#132206583
1!
#132207000
0!
#132321000
1!
#132321625
0!
#132322208
1!
#132322625
0!
#132324208
1!
#132328416
0!
#132328583
1!
#132329041
0!
#132443000
1!
#132443666
0!
#132444208
1!
#132444666
0!
#132446208
1!
#132450458
0!
#132450625
1!
#132451041
0!
#132567833
1!
#132568458
0!
#132569041
1!
#132569458
0!
#132571041
1!
#132575250
0!
#132575416
1!
#132575875
0!
#132693041
1!
#132693666
0!
#132694250
1!
#132694666
0!
#132696250
1!
#132700500
0!
#132700666
1!
#132701083
0!
#132816458
1!
#132817083
0!
#132817666
1!
#132818083
0!
#132819666
1!
#132823916
0!
#132824083
1!
#132824500
0!
#132938500
1!
#132939125
0!
#132939666
1!
#132940125
0!
#132941666
1!
#132945916
0!
#132946083
1!
#132946500
0!
#133060500
1!
#133061125
0!
#133061708
1!
#133062125
0!
#133063708
1!
#133067916
0!
#133068083
1!
#133068541
0!
#133182500
1!
#133183166
0!
#133183708
1!
#133184166
0!
#133185708
1!
#133189958
0!
#133190125
1!
#133190541
0!
#133304541
1!
#133305166
0!
#133305750
1!
#133306166
0!
#133307750
1!
#133311958
0!
#133312125
1!
#133312583
0!
#133426541
1!
#133427166
0!
#133427750
1!
#133428166
0!
#133429750
1!
#133434000
0!
#133434166
1!
#133434583
0!
#133550958
1!
#133551583
0!
#133552166
1!
#133552583
0!
#133554166
1!
#133558416
0!
#133558583
1!
#133559000
0!
#133675375
1!
#133676000
0!
#133676583
1!
#133677000
0!
#133678583
1!
#133682833
0!
#133683000
1!
#133683416
0!
#133800208
1!
#133800833
0!
#133801416
1!
#133801833
0!
#133803416
1!
#133807625
0!
#133807791
1!
#133808250
0!
#133922208
1!
#133922833
0!
#133923416
1!
#133923833
0!
#133925416
1!
#133929666
0!
#133929833
1!
#133930250
0!
#134044250
1!
#134044875
0!
#134045458
1!
#134045875
0!
#134047458
1!
#134051666
0!
#134051833
1!
#134052250
0!
#134166250
1!
#134166875
0!
#134167458
1!
#134167875
0!
#134169458
1!
#134173666
0!
#134173875
1!
#134174291
0!
#134288291
1!
#134288916
0!
#134289458
1!
#134289916
0!
#134291458
1!
#134295708
0!
#134295875
1!
#134296291
0!
#134410291
1!
#134410916
0!
#134411500
1!
#134411916
0!
#134413500
1!
#134417708
0!
#134417875
1!
#134418333
0!
#134532291
1!
#134532916
0!
#134533500
1!
#134533916
0!
#134535500
1!
#134539750
0!
#134539916
1!
#134540333
0!
#134657125
1!
#134657750
0!
#134658333
1!
#134658750
0!
#134660333
1!
#134664541
0!
#134664708
1!
#134665166
0!
#134782333
1!
#134782958
0!
#134783541
1!
#134783958
0!
#134785541
1!
#134789791
0!
#134789958
1!
#134790375
0!
#134905750
1!
#134906375
0!
#134906958
1!
#134907375
0!
#134908958
1!
#134913208
0!
#134913375
1!
#134913791
0!
#135027791
1!
#135028416
0!
#135028958
1!
#135029416
0!
#135030958
1!
#135035208
0!
#135035375
1!
#135035791
0!
#135149791
1!
#135150416
0!
#135151000
1!
#135151416
0!
#135153000
1!
#135157208
0!
#135157375
1!
#135157833
0!
#135271791
1!
#135272416
0!
#135273000
1!
#135273458
0!
#135275000
1!
#135279250
0!
#135279416
1!
#135279833
0!
#135393833
1!
#135394458
0!
#135395041
1!
#135395458
0!
#135397041
1!
#135401250
0!
#135401416
1!
#135401875
0!
#135515833
1!
#135516458
0!
#135517041
1!
#135517458
0!
#135519041
1!
#135523291
0!
#135523458
1!
#135523875
0!
#135640250
1!
#135640875
0!
#135641458
1!
#135641875
0!
#135643458
1!
#135647708
0!
#135647875
1!
#135648291
0!
#135764666
1!
#135765291
0!
#135765875
1!
#135766291
0!
#135767875
1!
#135772125
0!
#135772291
1!
#135772708
0!
#135889500
1!
#135890125
0!
#135890708
1!
#135891125
0!
#135892708
1!
#135896916
0!
#135897083
1!
#135897541
0!
#136011500
1!
#136012125
0!
#136012708
1!
#136013125
0!
#136014708
1!
#136018958
0!
#136019125
1!
#136019541
0!
#136133541
1!
#136134166
0!
#136134708
1!
#136135166
0!
#136136708
1!
#136140958
0!
#136141125
1!
#136141541
0!
#136255541
1!
#136256166
0!
#136256750
1!
#136257166
0!
#136258750
1!
#136262958
0!
#136263125
1!
#136263583
0!
#136377541
1!
#136378208
0!
#136378750
1!
#136379208
0!
#136380750
1!
#136385000
0!
#136385166
1!
#136385583
0!
#136499583
1!
#136500208
0!
#136500791
1!
#136501208
0!
#136502791
1!
#136507000
0!
#136507166
1!
#136507625
0!
#136621583
1!
#136622208
0!
#136622791
1!
#136623208
0!
#136624791
1!
#136629041
0!
#136629208
1!
#136629625
0!
#136746416
1!
#136747041
0!
#136747625
1!
#136748041
0!
#136749625
1!
#136753833
0!
#136754000
1!
#136754458
0!
#136871416
1!
#136872041
0!
#136872625
1!
#136873041
0!
#136874625
1!
#136878875
0!
#136879041
1!
#136879458
0!
#136995041
1!
#136995666
0!
#136996250
1!
#136996666
0!
#136998250
1!
#137002458
0!
#137002625
1!
#137003083
0!
#137117041
1!
#137117708
0!
#137118250
1!
#137118708
0!
#137120250
1!
#137124500
0!
#137124666
1!
#137125083
0!
#137239083
1!
#137239708
0!
#137240291
1!
#137240708
0!
#137242291
1!
#137246500
0!
#137246666
1!
#137247125
0!
#137361083
1!
#137361708
0!
#137362291
1!
#137362708
0!
#137364291
1!
#137368541
0!
#137368708
1!
#137369125
0!
#137483125
1!
#137483750
0!
#137484291
1!
#137484750
0!
#137486291
1!
#137490541
0!
#137490708
1!
#137491125
0!
#137605125
1!
#137605750
0!
#137606333
1!
#137606750
0!
#137608333
1!
#137612541
0!
#137612708
1!
#137613166
0!
#137729541
1!
#137730166
0!
#137730750
1!
#137731166
0!
#137732750
1!
#137736958
0!
#137737125
1!
#137737583
0!
#137853958
1!
#137854583
0!
#137855166
1!
#137855583
0!
#137857166
1!
#137861375
0!
#137861541
1!
#137862000
0!
#137978791
1!
#137979416
0!
#137979958
1!
#137980416
0!
#137981958
1!
#137986208
0!
#137986375
1!
#137986791
0!
#138100791
1!
#138101416
0!
#138102000
1!
#138102416
0!
#138104000
1!
#138108208
0!
#138108375
1!
#138108833
0!
#138222791
1!
#138223458
0!
#138224000
1!
#138224458
0!
#138226000
1!
#138230250
0!
#138230416
1!
#138230833
0!
#138344833
1!
#138345458
0!
#138346041
1!
#138346458
0!
#138348041
1!
#138352250
0!
#138352416
1!
#138352875
0!
#138466833
1!
#138467458
0!
#138468041
1!
#138468458
0!
#138470041
1!
#138474291
0!
#138474458
1!
#138474875
0!
#138588875
1!
#138589500
0!
#138590041
1!
#138590500
0!
#138592041
1!
#138596291
0!
#138596458
1!
#138596875
0!
#138710875
1!
#138711500
0!
#138712083
1!
#138712500
0!
#138714083
1!
#138718291
0!
#138718458
1!
#138718916
0!
#138835708
1!
#138836333
0!
#138836875
1!
#138837333
0!
#138838875
1!
#138843125
0!
#138843291
1!
#138843708
0!
#138960708
1!
#138961333
0!
#138961916
1!
#138962333
0!
#138963916
1!
#138968125
0!
#138968333
1!
#138968750
0!
#139084333
1!
#139084958
0!
#139085541
1!
#139085958
0!
#139087541
1!
#139091750
0!
#139091916
1!
#139092375
0!
#139206333
1!
#139206958
0!
#139207541
1!
#139207958
0!
#139209541
1!
#139213791
0!
#139213958
1!
#139214375
0!
#139328375
1!
#139329000
0!
#139329541
1!
#139330000
0!
#139331583
1!
#139335791
0!
#139335958
1!
#139336375
0!
#139450375
1!
#139451000
0!
#139451583
1!
#139452000
0!
#139453583
1!
#139457791
0!
#139458000
1!
#139458416
0!
#139572375
1!
#139573041
0!
#139573583
1!
#139574041
0!
#139575583
1!
#139579833
0!
#139580000
1!
#139580416
0!
#139694416
1!
#139695041
0!
#139695625
1!
#139696041
0!
#139697625
1!
#139701833
0!
#139702000
1!
#139702458
0!
#139811333
1"
#139811958
0"
#139812541
1"
#139812958
0"
#139813708
1"
#139813958
0"
#139816333
1"
#139816541
0"
#139818833
1!
#139819333
1"
#139819458
0!
#139819541
0"
#139820041
1!
#139820458
0!
#139822041
1!
#139826250
0!
#139826416
1!
#139826875
0!
#173383833
1!
#173384458
0!
#173385041
1!
#173385458
0!
#173387041
1!
#173391250
0!
#173391416
1!
#173391875
0!
#173505833
1!
#173506500
0!
#173507041
1!
#173507500
0!
#173509041
1!
#173513291
0!
#173513458
1!
#173513875
0!
#173627875
1!
#173628500
0!
#173629083
1!
#173629500
0!
#173631083
1!
#173635291
0!
#173635458
1!
#173635916
0!
#173749875
1!
#173750500
0!
#173751083
1!
#173751500
0!
#173753083
1!
#173757333
0!
#173757500
1!
#173757916
0!
#173871916
1!
#173872541
0!
#173873083
1!
#173873541
0!
#173875083
1!
#173879333
0!
#173879500
1!
#173879916
0!
#173993916
1!
#173994541
0!
#173995125
1!
#173995541
0!
#173997125
1!
#174001333
0!
#174001500
1!
#174001958
0!
#174121750
1!
#174122375
0!
#174122916
1!
#174123375
0!
#174124916
1!
#174129166
0!
#174129333
1!
#174129750
0!
#174246958
1!
#174247583
0!
#174248166
1!
#174248583
0!
#174250166
1!
#174254375
0!
#174254541
1!
#174255000
0!
