Monitor bus sniffs/mash_enter.vcd
$timescale 1 ns $end
$scope module top $end
$var wire 1 ! Channel_2 $end
$var wire 1 " Channel_4 $end
$upscope $end
$enddefinitions $end
#72301125
0!
0"
#72306125
1!
#72306750
0!
#72307333
1!
#72307750
0!
#72309333
1!
#72313541
0!
#72313708
1!
#72314166
0!
#72428125
1!
#72428750
0!
#72429333
1!
#72429750
0!
#72431333
1!
#72435583
0!
#72435750
1!
#72436166
0!
#72552541
1!
#72553166
0!
#72553750
1!
#72554166
0!
#72555750
1!
#72560000
0!
#72560166
1!
#72560583
0!
#72676750
1!
#72677416
0!
#72677958
1!
#72678416
0!
#72679958
1!
#72684208
0!
#72684375
1!
#72684791
0!
#72801583
1!
#72802208
0!
#72802791
1!
#72803208
0!
#72804791
1!
#72809000
0!
#72809166
1!
#72809625
0!
#72923583
1!
#72924250
0!
#72924791
1!
#72925250
0!
#72926791
1!
#72931041
0!
#72931208
1!
#72931625
0!
#73045625
1!
#73046250
0!
#73046833
1!
#73047250
0!
#73048833
1!
#73053041
0!
#73053208
1!
#73053666
0!
#73167625
1!
#73168250
0!
#73168833
1!
#73169250
0!
#73170833
1!
#73175083
0!
#73175250
1!
#73175666
0!
#73289666
1!
#73290291
0!
#73290833
1!
#73291291
0!
#73292833
1!
#73297083
0!
#73297250
1!
#73297666
0!
#73411666
1!
#73412291
0!
#73412875
1!
#73413291
0!
#73414875
1!
#73419083
0!
#73419250
1!
#73419708
0!
#73533666
1!
#73534333
0!
#73534875
1!
#73535333
0!
#73536875
1!
#73541125
0!
#73541291
1!
#73541708
0!
#73658708
1!
#73659333
0!
#73659916
1!
#73660333
0!
#73661916
1!
#73666125
0!
#73666291
1!
#73666750
0!
#73783708
1!
#73784333
0!
#73784916
1!
#73785333
0!
#73786916
1!
#73791166
0!
#73791333
1!
#73791750
0!
#73907125
1!
#73907750
0!
#73908333
1!
#73908750
0!
#73910333
1!
#73914583
0!
#73914750
1!
#73915166
0!
#74029166
1!
#74029791
0!
#74030333
1!
#74030791
0!
#74032333
1!
#74036583
0!
#74036750
1!
#74037166
0!
#74151166
1!
#74151791
0!
#74152375
1!
#74152791
0!
#74154375
1!
#74158583
0!
#74158750
1!
#74159208
0!
#74273166
1!
#74273833
0!
#74274375
1!
#74274833
0!
#74276375
1!
#74280625
0!
#74280791
1!
#74281208
0!
#74395208
1!
#74395833
0!
#74396416
1!
#74396833
0!
#74398416
1!
#74402625
0!
#74402791
1!
#74403250
0!
#74517208
1!
#74517833
0!
#74518416
1!
#74518833
0!
#74520416
1!
#74524666
0!
#74524833
1!
#74525250
0!
#74641625
1!
#74642250
0!
#74642833
1!
#74643250
0!
#74644833
1!
#74649083
0!
#74649250
1!
#74649666
0!
#74766041
1!
#74766666
0!
#74767250
1!
#74767666
0!
#74769250
1!
#74773500
0!
#74773666
1!
#74774083
0!
#74890875
1!
#74891500
0!
#74892083
1!
#74892500
0!
#74894083
1!
#74898291
0!
#74898458
1!
#74898916
0!
#75012875
1!
#75013500
0!
#75014083
1!
#75014500
0!
#75016083
1!
#75020333
0!
#75020500
1!
#75020916
0!
#75134916
1!
#75135541
0!
#75136083
1!
#75136541
0!
#75138083
1!
#75142333
0!
#75142500
1!
#75142916
0!
#75256916
1!
#75257541
0!
#75258125
1!
#75258541
0!
#75260125
1!
#75264333
0!
#75264500
1!
#75264958
0!
#75378916
1!
#75379583
0!
#75380125
1!
#75380583
0!
#75382125
1!
#75386375
0!
#75386541
1!
#75386958
0!
#75500958
1!
#75501583
0!
#75502166
1!
#75502583
0!
#75504166
1!
#75508375
0!
#75508541
1!
#75509000
0!
#75622958
1!
#75623583
0!
#75624166
1!
#75624583
0!
#75626166
1!
#75630416
0!
#75630583
1!
#75631000
0!
#75747791
1!
#75748416
0!
#75749000
1!
#75749416
0!
#75751000
1!
#75755208
0!
#75755375
1!
#75755833
0!
#75873000
1!
#75873625
0!
#75874208
1!
#75874625
0!
#75876208
1!
#75880416
0!
#75880625
1!
#75881041
0!
#75996416
1!
#75997041
0!
#75997625
1!
#75998041
0!
#75999625
1!
#76003833
0!
#76004041
1!
#76004458
0!
#76118458
1!
#76119083
0!
#76119625
1!
#76120083
0!
#76121625
1!
#76125875
0!
#76126041
1!
#76126458
0!
#76240458
1!
#76241083
0!
#76241666
1!
#76242083
0!
#76243666
1!
#76247875
0!
#76248041
1!
#76248500
0!
#76362458
1!
#76363083
0!
#76363666
1!
#76364083
0!
#76365666
1!
#76369916
0!
#76370083
1!
#76370500
0!
#76484500
1!
#76485125
0!
#76485708
1!
#76486125
0!
#76487708
1!
#76491916
0!
#76492083
1!
#76492500
0!
#76606500
1!
#76607125
0!
#76607708
1!
#76608125
0!
#76609708
1!
#76613916
0!
#76614125
1!
#76614541
0!
#76730916
1!
#76731541
0!
#76732125
1!
#76732541
0!
#76734125
1!
#76738333
0!
#76738541
1!
#76738958
0!
#76855333
1!
#76855958
0!
#76856541
1!
#76856958
0!
#76858541
1!
#76862750
0!
#76862958
1!
#76863375
0!
#76980166
1!
#76980791
0!
#76981375
1!
#76981791
0!
#76983375
1!
#76987583
0!
#76987750
1!
#76988208
0!
#77102166
1!
#77102791
0!
#77103375
1!
#77103791
0!
#77105375
1!
#77109625
0!
#77109791
1!
#77110208
0!
#77224208
1!
#77224833
0!
#77225375
1!
#77225833
0!
#77227375
1!
#77231625
0!
#77231791
1!
#77232208
0!
#77346208
1!
#77346833
0!
#77347416
1!
#77347833
0!
#77349416
1!
#77353625
0!
#77353791
1!
#77354250
0!
#77468208
1!
#77468833
0!
#77469416
1!
#77469833
0!
#77471416
1!
#77475666
0!
#77475833
1!
#77476250
0!
#77590250
1!
#77590875
0!
#77591458
1!
#77591875
0!
#77593458
1!
#77597666
0!
#77597833
1!
#77598291
0!
#77712250
1!
#77712875
0!
#77713458
1!
#77713875
0!
#77715458
1!
#77719708
0!
#77719875
1!
#77720291
0!
#77837083
1!
#77837708
0!
#77838291
1!
#77838708
0!
#77840291
1!
#77844500
0!
#77844666
1!
#77845125
0!
#77962291
1!
#77962916
0!
#77963500
1!
#77963916
0!
#77965500
1!
#77969708
0!
#77969875
1!
#77970333
0!
#78085708
1!
#78086333
0!
#78086916
1!
#78087333
0!
#78088916
1!
#78093125
0!
#78093291
1!
#78093750
0!
#78207708
1!
#78208375
0!
#78208916
1!
#78209375
0!
#78210916
1!
#78215166
0!
#78215333
1!
#78215750
0!
#78329750
1!
#78330375
0!
#78330958
1!
#78331375
0!
#78332958
1!
#78337166
0!
#78337333
1!
#78337791
0!
#78451750
1!
#78452375
0!
#78452958
1!
#78453375
0!
#78454958
1!
#78459208
0!
#78459375
1!
#78459791
0!
#78573791
1!
#78574416
0!
#78574958
1!
#78575416
0!
#78576958
1!
#78581208
0!
#78581375
1!
#78581791
0!
#78695791
1!
#78696416
0!
#78697000
1!
#78697416
0!
#78699000
1!
#78703208
0!
#78703375
1!
#78703833
0!
#78820208
1!
#78820833
0!
#78821416
1!
#78821833
0!
#78823416
1!
#78827625
0!
#78827791
1!
#78828250
0!
#78944625
1!
#78945250
0!
#78945833
1!
#78946250
0!
#78947833
1!
#78952041
0!
#78952208
1!
#78952666
0!
#79069458
1!
#79070083
0!
#79070625
1!
#79071083
0!
#79072625
1!
#79076875
0!
#79077041
1!
#79077458
0!
#79191458
1!
#79192083
0!
#79192666
1!
#79193083
0!
#79194666
1!
#79198875
0!
#79199041
1!
#79199500
0!
#79313458
1!
#79314125
0!
#79314666
1!
#79315125
0!
#79316666
1!
#79320916
0!
#79321083
1!
#79321500
0!
#79435500
1!
#79436125
0!
#79436708
1!
#79437125
0!
#79438708
1!
#79442916
0!
#79443083
1!
#79443541
0!
#79557500
1!
#79558125
0!
#79558708
1!
#79559125
0!
#79560708
1!
#79564958
0!
#79565125
1!
#79565541
0!
#79679541
1!
#79680166
0!
#79680708
1!
#79681166
0!
#79682708
1!
#79686958
0!
#79687125
1!
#79687541
0!
#79801541
1!
#79802166
0!
#79802750
1!
#79803166
0!
#79804750
1!
#79808958
0!
#79809125
1!
#79809583
0!
#79926375
1!
#79927000
0!
#79927541
1!
#79928000
0!
#79929541
1!
#79933791
0!
#79933958
1!
#79934375
0!
#80051375
1!
#80052000
0!
#80052583
1!
#80053000
0!
#80054583
1!
#80058791
0!
#80058958
1!
#80059416
0!
#80175000
1!
#80175625
0!
#80176208
1!
#80176625
0!
#80178208
1!
#80182416
0!
#80182583
1!
#80183041
0!
#80297000
1!
#80297625
0!
#80298208
1!
#80298625
0!
#80300208
1!
#80304458
0!
#80304625
1!
#80305041
0!
#80419041
1!
#80419666
0!
#80420208
1!
#80420666
0!
#80422208
1!
#80426458
0!
#80426625
1!
#80427041
0!
#80541041
1!
#80541666
0!
#80542250
1!
#80542666
0!
#80544250
1!
#80548458
0!
#80548625
1!
#80549083
0!
#80663041
1!
#80663708
0!
#80664250
1!
#80664708
0!
#80666250
1!
#80670500
0!
#80670666
1!
#80671083
0!
#80785083
1!
#80785708
0!
#80786291
1!
#80786708
0!
#80788291
1!
#80792500
0!
#80792666
1!
#80793125
0!
#80909500
1!
#80910125
0!
#80910708
1!
#80911125
0!
#80912708
1!
#80916916
0!
#80917083
1!
#80917541
0!
#81033916
1!
#81034541
0!
#81035125
1!
#81035541
0!
#81037125
1!
#81041333
0!
#81041500
1!
#81041958
0!
#81158708
1!
#81159375
0!
#81159916
1!
#81160375
0!
#81161916
1!
#81166166
0!
#81166333
1!
#81166750
0!
#81280750
1!
#81281375
0!
#81281958
1!
#81282375
0!
#81283958
1!
#81288166
0!
#81288333
1!
#81288791
0!
#81402750
1!
#81403375
0!
#81403958
1!
#81404375
0!
#81405958
1!
#81410208
0!
#81410375
1!
#81410791
0!
#81524791
1!
#81525416
0!
#81525958
1!
#81526416
0!
#81527958
1!
#81532208
0!
#81532375
1!
#81532791
0!
#81646791
1!
#81647416
0!
#81648000
1!
#81648416
0!
#81650000
1!
#81654208
0!
#81654416
1!
#81654833
0!
#81768791
1!
#81769458
0!
#81770000
1!
#81770458
0!
#81772000
1!
#81776250
0!
#81776416
1!
#81776833
0!
#81890833
1!
#81891458
0!
#81892041
1!
#81892458
0!
#81894041
1!
#81898250
0!
#81898416
1!
#81898875
0!
#82015666
1!
#82016291
0!
#82016833
1!
#82017291
0!
#82018833
1!
#82023083
0!
#82023250
1!
#82023666
0!
#82140666
1!
#82141291
0!
#82141875
1!
#82142291
0!
#82143875
1!
#82148083
0!
#82148250
1!
#82148708
0!
#82264291
1!
#82264916
0!
#82265500
1!
#82265916
0!
#82267500
1!
#82271708
0!
#82271875
1!
#82272333
0!
#82386291
1!
#82386916
0!
#82387500
1!
#82387916
0!
#82389500
1!
#82393750
0!
#82393916
1!
#82394333
0!
#82508333
1!
#82508958
0!
#82509500
1!
#82509958
0!
#82511500
1!
#82515750
0!
#82515916
1!
#82516333
0!
#82630333
1!
#82630958
0!
#82631541
1!
#82631958
0!
#82633541
1!
#82637750
0!
#82637916
1!
#82638375
0!
#82752333
1!
#82752958
0!
#82753541
1!
#82753958
0!
#82755541
1!
#82759791
0!
#82759958
1!
#82760375
0!
#82874375
1!
#82875000
0!
#82875583
1!
#82876000
0!
#82877583
1!
#82881791
0!
#82881958
1!
#82882416
0!
#82998791
1!
#82999416
0!
#83000000
1!
#83000416
0!
#83002000
1!
#83006208
0!
#83006375
1!
#83006833
0!
#83123000
1!
#83123625
0!
#83124208
1!
#83124625
0!
#83126208
1!
#83130416
0!
#83130583
1!
#83131041
0!
#83247833
1!
#83248458
0!
#83249000
1!
#83249458
0!
#83251000
1!
#83255250
0!
#83255416
1!
#83255833
0!
#83369833
1!
#83370458
0!
#83371041
1!
#83371458
0!
#83373041
1!
#83377250
0!
#83377416
1!
#83377875
0!
#83491833
1!
#83492500
0!
#83493041
1!
#83493500
0!
#83495041
1!
#83499291
0!
#83499458
1!
#83499875
0!
#83613875
1!
#83614500
0!
#83615083
1!
#83615500
0!
#83617083
1!
#83621291
0!
#83621458
1!
#83621916
0!
#83735875
1!
#83736500
0!
#83737083
1!
#83737500
0!
#83739083
1!
#83743333
0!
#83743500
1!
#83743916
0!
#83857916
1!
#83858541
0!
#83859083
1!
#83859541
0!
#83861083
1!
#83865333
0!
#83865500
1!
#83865916
0!
#83979916
1!
#83980541
0!
#83981125
1!
#83981541
0!
#83983125
1!
#83987333
0!
#83987500
1!
#83987958
0!
#84104916
1!
#84105583
0!
#84106125
1!
#84106583
0!
#84108125
1!
#84112375
0!
#84112541
1!
#84112958
0!
#84229958
1!
#84230583
0!
#84231166
1!
#84231583
0!
#84233166
1!
#84237375
0!
#84237541
1!
#84238000
0!
#84353375
1!
#84354000
0!
#84354583
1!
#84355000
0!
#84356583
1!
#84360791
0!
#84360958
1!
#84361416
0!
#84475375
1!
#84476000
0!
#84476583
1!
#84477000
0!
#84478583
1!
#84482833
0!
#84483000
1!
#84483416
0!
#84597416
1!
#84598041
0!
#84598583
1!
#84599041
0!
#84600583
1!
#84604833
0!
#84605000
1!
#84605416
0!
#84719416
1!
#84720041
0!
#84720625
1!
#84721041
0!
#84722625
1!
#84726833
0!
#84727000
1!
#84727458
0!
#84841416
1!
#84842083
0!
#84842625
1!
#84843083
0!
#84844625
1!
#84848875
0!
#84849041
1!
#84849458
0!
#84963458
1!
#84964083
0!
#84964666
1!
#84965083
0!
#84966666
1!
#84970875
0!
#84971041
1!
#84971500
0!
#85087875
1!
#85088500
0!
#85089083
1!
#85089500
0!
#85091083
1!
#85095291
0!
#85095458
1!
#85095916
0!
#85212291
1!
#85212916
0!
#85213500
1!
#85213916
0!
#85215500
1!
#85219708
0!
#85219875
1!
#85220333
0!
#85337083
1!
#85337750
0!
#85338291
1!
#85338750
0!
#85340291
1!
#85344541
0!
#85344708
1!
#85345125
0!
#85459125
1!
#85459750
0!
#85460333
1!
#85460750
0!
#85462333
1!
#85466541
0!
#85466708
1!
#85467166
0!
#85581125
1!
#85581750
0!
#85582333
1!
#85582750
0!
#85584333
1!
#85588583
0!
#85588750
1!
#85589166
0!
#85703166
1!
#85703791
0!
#85704333
1!
#85704791
0!
#85706333
1!
#85710583
0!
#85710750
1!
#85711166
0!
#85825166
1!
#85825791
0!
#85826375
1!
#85826791
0!
#85828375
1!
#85832583
0!
#85832750
1!
#85833208
0!
#85947166
1!
#85947833
0!
#85948375
1!
#85948833
0!
#85950375
1!
#85954625
0!
#85954791
1!
#85955208
0!
#86069208
1!
#86069833
0!
#86070416
1!
#86070833
0!
#86072416
1!
#86076625
0!
#86076791
1!
#86077250
0!
#86194000
1!
#86194666
0!
#86195208
1!
#86195666
0!
#86197208
1!
#86201458
0!
#86201625
1!
#86202041
0!
#86319250
1!
#86319875
0!
#86320416
1!
#86320875
0!
#86322416
1!
#86326666
0!
#86326833
1!
#86327250
0!
#86442666
1!
#86443291
0!
#86443833
1!
#86444291
0!
#86445833
1!
#86450083
0!
#86450250
1!
#86450666
0!
#86564666
1!
#86565291
0!
#86565875
1!
#86566291
0!
#86567875
1!
#86572083
0!
#86572291
1!
#86572708
0!
#86686666
1!
#86687333
0!
#86687875
1!
#86688333
0!
#86689875
1!
#86694125
0!
#86694291
1!
#86694708
0!
#86808708
1!
#86809333
0!
#86809916
1!
#86810333
0!
#86811916
1!
#86816125
0!
#86816291
1!
#86816750
0!
#86930708
1!
#86931333
0!
#86931916
1!
#86932333
0!
#86933916
1!
#86938166
0!
#86938333
1!
#86938750
0!
#87052750
1!
#87053375
0!
#87053916
1!
#87054375
0!
#87055916
1!
#87060166
0!
#87060333
1!
#87060750
0!
#87177166
1!
#87177791
0!
#87178375
1!
#87178791
0!
#87180375
1!
#87184583
0!
#87184750
1!
#87185166
0!
#87301583
1!
#87302208
0!
#87302791
1!
#87303208
0!
#87304791
1!
#87309000
0!
#87309166
1!
#87309583
0!
#87426375
1!
#87427000
0!
#87427583
1!
#87428000
0!
#87429583
1!
#87433833
0!
#87434000
1!
#87434416
0!
#87548416
1!
#87549041
0!
#87549625
1!
#87550041
0!
#87551625
1!
#87555833
0!
#87556000
1!
#87556416
0!
#87670416
1!
#87671041
0!
#87671625
1!
#87672041
0!
#87673625
1!
#87677833
0!
#87678041
1!
#87678458
0!
#87792458
1!
#87793083
0!
#87793625
1!
#87794083
0!
#87795625
1!
#87799875
0!
#87800041
1!
#87800458
0!
#87914458
1!
#87915083
0!
#87915666
1!
#87916083
0!
#87917666
1!
#87921875
0!
#87922041
1!
#87922500
0!
#88036458
1!
#88037083
0!
#88037666
1!
#88038083
0!
#88039666
1!
#88043916
0!
#88044083
1!
#88044500
0!
#88158500
1!
#88159125
0!
#88159708
1!
#88160125
0!
#88161708
1!
#88165916
0!
#88166083
1!
#88166541
0!
#88283291
1!
#88283916
0!
#88284500
1!
#88284916
0!
#88286500
1!
#88290750
0!
#88290916
1!
#88291333
0!
#88408541
1!
#88409166
0!
#88409708
1!
#88410166
0!
#88411708
1!
#88415958
0!
#88416125
1!
#88416541
0!
#88531958
1!
#88532583
0!
#88533125
1!
#88533583
0!
#88535125
1!
#88539375
0!
#88539541
1!
#88539958
0!
#88653958
1!
#88654583
0!
#88655166
1!
#88655583
0!
#88657166
1!
#88661375
0!
#88661541
1!
#88662000
0!
#88775958
1!
#88776625
0!
#88777166
1!
#88777625
0!
#88779166
1!
#88783416
0!
#88783583
1!
#88784000
0!
#88898000
1!
#88898625
0!
#88899208
1!
#88899625
0!
#88901208
1!
#88905416
0!
#88905583
1!
#88906041
0!
#89020000
1!
#89020625
0!
#89021208
1!
#89021625
0!
#89023208
1!
#89027458
0!
#89027625
1!
#89028041
0!
#89142041
1!
#89142666
0!
#89143208
1!
#89143666
0!
#89145208
1!
#89149458
0!
#89149625
1!
#89150041
0!
#89266458
1!
#89267083
0!
#89267625
1!
#89268083
0!
#89269625
1!
#89273875
0!
#89274041
1!
#89274458
0!
#89390875
1!
#89391500
0!
#89392041
1!
#89392500
0!
#89394041
1!
#89398291
0!
#89398458
1!
#89398875
0!
#89515666
1!
#89516291
0!
#89516875
1!
#89517291
0!
#89518875
1!
#89523125
0!
#89523291
1!
#89523708
0!
#89637708
1!
#89638333
0!
#89638875
1!
#89639333
0!
#89640875
1!
#89645125
0!
#89645291
1!
#89645708
0!
#89759708
1!
#89760333
0!
#89760916
1!
#89761333
0!
#89762916
1!
#89767125
0!
#89767291
1!
#89767750
0!
#89881708
1!
#89882375
0!
#89882916
1!
#89883375
0!
#89884916
1!
#89889166
0!
#89889333
1!
#89889750
0!
#90003750
1!
#90004375
0!
#90004958
1!
#90005375
0!
#90006958
1!
#90011166
0!
#90011333
1!
#90011791
0!
#90125750
1!
#90126375
0!
#90126958
1!
#90127375
0!
#90128958
1!
#90133208
0!
#90133375
1!
#90133791
0!
#90247791
1!
#90248416
0!
#90248958
1!
#90249416
0!
#90250958
1!
#90255208
0!
#90255375
1!
#90255791
0!
#90372583
1!
#90373208
0!
#90373791
1!
#90374208
0!
#90375791
1!
#90380041
0!
#90380208
1!
#90380625
0!
#90497625
1!
#90498250
0!
#90498791
1!
#90499250
0!
#90500791
1!
#90505041
0!
#90505208
1!
#90505625
0!
#90621208
1!
#90621875
0!
#90622416
1!
#90622875
0!
#90624416
1!
#90628666
0!
#90628833
1!
#90629250
0!
#90743250
1!
#90743875
0!
#90744458
1!
#90744875
0!
#90746458
1!
#90750666
0!
#90750833
1!
#90751291
0!
#90865250
1!
#90865875
0!
#90866458
1!
#90866875
0!
#90868458
1!
#90872708
0!
#90872875
1!
#90873291
0!
#90987291
1!
#90987916
0!
#90988458
1!
#90988916
0!
#90990458
1!
#90994708
0!
#90994875
1!
#90995291
0!
#91109291
1!
#91109916
0!
#91110500
1!
#91110916
0!
#91112500
1!
#91116708
0!
#91116875
1!
#91117333
0!
#91231291
1!
#91231958
0!
#91232500
1!
#91232958
0!
#91234500
1!
#91238750
0!
#91238916
1!
#91239333
0!
#91355708
1!
#91356375
0!
#91356916
1!
#91357375
0!
#91358916
1!
#91363166
0!
#91363333
1!
#91363750
0!
#91480125
1!
#91480791
0!
#91481333
1!
#91481791
0!
#91483333
1!
#91487583
0!
#91487750
1!
#91488166
0!
#91604958
1!
#91605583
0!
#91606166
1!
#91606583
0!
#91608166
1!
#91612375
0!
#91612541
1!
#91613000
0!
#91726958
1!
#91727625
0!
#91728166
1!
#91728625
0!
#91730166
1!
#91734416
0!
#91734583
1!
#91735000
0!
#91849000
1!
#91849625
0!
#91850208
1!
#91850625
0!
#91852208
1!
#91856416
0!
#91856583
1!
#91857041
0!
#91971000
1!
#91971625
0!
#91972208
1!
#91972625
0!
#91974208
1!
#91978458
0!
#91978625
1!
#91979041
0!
#92093041
1!
#92093666
0!
#92094208
1!
#92094666
0!
#92096208
1!
#92100458
0!
#92100625
1!
#92101041
0!
#92215041
1!
#92215666
0!
#92216250
1!
#92216666
0!
#92218250
1!
#92222458
0!
#92222666
1!
#92223083
0!
#92337041
1!
#92337708
0!
#92338250
1!
#92338708
0!
#92340250
1!
#92344500
0!
#92344666
1!
#92345083
0!
#92461875
1!
#92462500
0!
#92463083
1!
#92463500
0!
#92465083
1!
#92469291
0!
#92469500
1!
#92469916
0!
#92586916
1!
#92587541
0!
#92588083
1!
#92588541
0!
#92590083
1!
#92594333
0!
#92594500
1!
#92594916
0!
#92710500
1!
#92711125
0!
#92711708
1!
#92712125
0!
#92713708
1!
#92717958
0!
#92718125
1!
#92718541
0!
#92832541
1!
#92833166
0!
#92833750
1!
#92834166
0!
#92835750
1!
#92839958
0!
#92840125
1!
#92840541
0!
#92954541
1!
#92955166
0!
#92955750
1!
#92956166
0!
#92957750
1!
#92961958
0!
#92962166
1!
#92962583
0!
#93076583
1!
#93077208
0!
#93077750
1!
#93078208
0!
#93079750
1!
#93084000
0!
#93084166
1!
#93084583
0!
#93198583
1!
#93199208
0!
#93199791
1!
#93200208
0!
#93201791
1!
#93206000
0!
#93206166
1!
#93206625
0!
#93320583
1!
#93321208
0!
#93321791
1!
#93322208
0!
#93323791
1!
#93328041
0!
#93328208
1!
#93328625
0!
#93445000
1!
#93445625
0!
#93446208
1!
#93446625
0!
#93448208
1!
#93452458
0!
#93452625
1!
#93453041
0!
#93569250
1!
#93569875
0!
#93570416
1!
#93570875
0!
#93572416
1!
#93576666
0!
#93576833
1!
#93577250
0!
#93694041
1!
#93694666
0!
#93695250
1!
#93695666
0!
#93697250
1!
#93701500
0!
#93701666
1!
#93702083
0!
#93816083
1!
#93816708
0!
#93817250
1!
#93817708
0!
#93819250
1!
#93823500
0!
#93823666
1!
#93824083
0!
#93938083
1!
#93938708
0!
#93939291
1!
#93939708
0!
#93941291
1!
#93945500
0!
#93945666
1!
#93946125
0!
#94060083
1!
#94060750
0!
#94061291
1!
#94061750
0!
#94063291
1!
#94067541
0!
#94067708
1!
#94068125
0!
#94182125
1!
#94182750
0!
#94183333
1!
#94183750
0!
#94185333
1!
#94189541
0!
#94189708
1!
#94190166
0!
#94304125
1!
#94304750
0!
#94305333
1!
#94305750
0!
#94307333
1!
#94311583
0!
#94311750
1!
#94312166
0!
#94426166
1!
#94426791
0!
#94427333
1!
#94427791
0!
#94429333
1!
#94433583
0!
#94433750
1!
#94434166
0!
#94551166
1!
#94551791
0!
#94552375
1!
#94552791
0!
#94554375
1!
#94558583
0!
#94558750
1!
#94559208
0!
#94676166
1!
#94676833
0!
#94677375
1!
#94677833
0!
#94679375
1!
#94683625
0!
#94683791
1!
#94684208
0!
#94799583
1!
#94800250
0!
#94800791
1!
#94801250
0!
#94802791
1!
#94807041
0!
#94807208
1!
#94807625
0!
#94921625
1!
#94922250
0!
#94922833
1!
#94923250
0!
#94924833
1!
#94929041
0!
#94929208
1!
#94929666
0!
#95043625
1!
#95044250
0!
#95044833
1!
#95045250
0!
#95046833
1!
#95051083
0!
#95051250
1!
#95051666
0!
#95165666
1!
#95166291
0!
#95166833
1!
#95167291
0!
#95168833
1!
#95173083
0!
#95173250
1!
#95173666
0!
#95287666
1!
#95288291
0!
#95288875
1!
#95289291
0!
#95290875
1!
#95295083
0!
#95295250
1!
#95295708
0!
#95409666
1!
#95410333
0!
#95410875
1!
#95411333
0!
#95412875
1!
#95417125
0!
#95417291
1!
#95417708
0!
#95534083
1!
#95534750
0!
#95535291
1!
#95535750
0!
#95537291
1!
#95541541
0!
#95541708
1!
#95542125
0!
#95658500
1!
#95659166
0!
#95659708
1!
#95660166
0!
#95661708
1!
#95665958
0!
#95666125
1!
#95666541
0!
#95783333
1!
#95783958
0!
#95784541
1!
#95784958
0!
#95786541
1!
#95790750
0!
#95790916
1!
#95791375
0!
#95905333
1!
#95906000
0!
#95906541
1!
#95907000
0!
#95908541
1!
#95912791
0!
#95912958
1!
#95913375
0!
#96027375
1!
#96028000
0!
#96028583
1!
#96029000
0!
#96030583
1!
#96034791
0!
#96034958
1!
#96035416
0!
#96149375
1!
#96150000
0!
#96150583
1!
#96151000
0!
#96152583
1!
#96156833
0!
#96157000
1!
#96157416
0!
#96271416
1!
#96272041
0!
#96272583
1!
#96273041
0!
#96274583
1!
#96278833
0!
#96279000
1!
#96279416
0!
#96393416
1!
#96394041
0!
#96394625
1!
#96395041
0!
#96396625
1!
#96400833
0!
#96401000
1!
#96401458
0!
#96515416
1!
#96516083
0!
#96516625
1!
#96517083
0!
#96518625
1!
#96522875
0!
#96523041
1!
#96523458
0!
#96640250
1!
#96640875
0!
#96641458
1!
#96641875
0!
#96643458
1!
#96647666
0!
#96647833
1!
#96648291
0!
#96765458
1!
#96766083
0!
#96766666
1!
#96767083
0!
#96768666
1!
#96772916
0!
#96773083
1!
#96773500
0!
#96888875
1!
#96889500
0!
#96890083
1!
#96890500
0!
#96892083
1!
#96896333
0!
#96896500
1!
#96896916
0!
#97010916
1!
#97011541
0!
#97012083
1!
#97012541
0!
#97014083
1!
#97018333
0!
#97018500
1!
#97018916
0!
#97132916
1!
#97133541
0!
#97134125
1!
#97134541
0!
#97136125
1!
#97140333
0!
#97140500
1!
#97140958
0!
#97254916
1!
#97255583
0!
#97256125
1!
#97256583
0!
#97258125
1!
#97262375
0!
#97262541
1!
#97262958
0!
#97376958
1!
#97377583
0!
#97378166
1!
#97378583
0!
#97380166
1!
#97384375
0!
#97384541
1!
#97385000
0!
#97498958
1!
#97499583
0!
#97500166
1!
#97500583
0!
#97502166
1!
#97506416
0!
#97506583
1!
#97507000
0!
#97623375
1!
#97624000
0!
#97624583
1!
#97625000
0!
#97626583
1!
#97630833
0!
#97631000
1!
#97631416
0!
#97747791
1!
#97748416
0!
#97749000
1!
#97749416
0!
#97751000
1!
#97755250
0!
#97755416
1!
#97755833
0!
#97872625
1!
#97873250
0!
#97873833
1!
#97874250
0!
#97875833
1!
#97880041
0!
#97880208
1!
#97880666
0!
#97994625
1!
#97995250
0!
#97995833
1!
#97996250
0!
#97997833
1!
#98002083
0!
#98002250
1!
#98002666
0!
#98116666
1!
#98117291
0!
#98117875
1!
#98118291
0!
#98119875
1!
#98124083
0!
#98124250
1!
#98124666
0!
#98238666
1!
#98239291
0!
#98239875
1!
#98240291
0!
#98241875
1!
#98246083
0!
#98246291
1!
#98246708
0!
#98360708
1!
#98361333
0!
#98361875
1!
#98362333
0!
#98363875
1!
#98368125
0!
#98368291
1!
#98368708
0!
#98482708
1!
#98483333
0!
#98483916
1!
#98484333
0!
#98485916
1!
#98490125
0!
#98490291
1!
#98490750
0!
#98604708
1!
#98605333
0!
#98605916
1!
#98606333
0!
#98607916
1!
#98612166
0!
#98612333
1!
#98612750
0!
#98729541
1!
#98730166
0!
#98730750
1!
#98731166
0!
#98732750
1!
#98736958
0!
#98737125
1!
#98737583
0!
#98854750
1!
#98855375
0!
#98855958
1!
#98856375
0!
#98857958
1!
#98862208
0!
#98862375
1!
#98862791
0!
#98978166
1!
#98978791
0!
#98979375
1!
#98979791
0!
#98981375
1!
#98985625
0!
#98985791
1!
#98986208
0!
#99100208
1!
#99100833
0!
#99101375
1!
#99101833
0!
#99103375
1!
#99107625
0!
#99107791
1!
#99108208
0!
#99222208
1!
#99222833
0!
#99223416
1!
#99223833
0!
#99225416
1!
#99229625
0!
#99229791
1!
#99230250
0!
#99344208
1!
#99344833
0!
#99345416
1!
#99345875
0!
#99347416
1!
#99351666
0!
#99351833
1!
#99352250
0!
#99466250
1!
#99466875
0!
#99467458
1!
#99467875
0!
#99469458
1!
#99473666
0!
#99473833
1!
#99474291
0!
#99588250
1!
#99588875
0!
#99589458
1!
#99589875
0!
#99591458
1!
#99595708
0!
#99595875
1!
#99596291
0!
#99712666
1!
#99713291
0!
#99713875
1!
#99714291
0!
#99715875
1!
#99720125
0!
#99720291
1!
#99720708
0!
#99837083
1!
#99837708
0!
#99838291
1!
#99838708
0!
#99840291
1!
#99844541
0!
#99844708
1!
#99845125
0!
#99961916
1!
#99962541
0!
#99963125
1!
#99963541
0!
#99965125
1!
#99969333
0!
#99969500
1!
#99969958
0!
#100083916
1!
#100084541
0!
#100085125
1!
#100085541
0!
#100087125
1!
#100091375
0!
#100091541
1!
#100091958
0!
#100205958
1!
#100206583
0!
#100207125
1!
#100207583
0!
#100209125
1!
#100213375
0!
#100213541
1!
#100213958
0!
#100327958
1!
#100328583
0!
#100329166
1!
#100329583
0!
#100331166
1!
#100335375
0!
#100335541
1!
#100336000
0!
#100449958
1!
#100450625
0!
#100451166
1!
#100451625
0!
#100453166
1!
#100457416
0!
#100457583
1!
#100458000
0!
#100572000
1!
#100572625
0!
#100573208
1!
#100573625
0!
#100575208
1!
#100579416
0!
#100579583
1!
#100580041
0!
#100694000
1!
#100694625
0!
#100695208
1!
#100695625
0!
#100697208
1!
#100701458
0!
#100701625
1!
#100702041
0!
#100818833
1!
#100819458
0!
#100820041
1!
#100820458
0!
#100822041
1!
#100826250
0!
