Monitor bus sniffs/mash_bright.vcd
$timescale 1 ns $end
$scope module top $end
$var wire 1 ! Channel_2 $end
$var wire 1 " Channel_4 $end
$upscope $end
$enddefinitions $end
#62014666
0!
0"
#62044041
1!
#62044666
0!
#62045250
1!
#62045666
0!
#62047250
1!
#62051458
0!
#62051666
1!
#62052083
0!
#62166083
1!
#62166708
0!
#62167250
1!
#62167708
0!
#62169250
1!
#62173500
0!
#62173666
1!
#62174083
0!
#62290666
1!
#62291291
0!
#62291875
1!
#62292291
0!
#62293875
1!
#62298125
0!
#62298291
1!
#62298708
0!
#62415916
1!
#62416541
0!
#62417083
1!
#62417541
0!
#62419083
1!
#62423333
0!
#62423500
1!
#62423916
0!
#62539333
1!
#62539958
0!
#62540500
1!
#62540958
0!
#62542500
1!
#62546750
0!
#62546916
1!
#62547333
0!
#62661333
1!
#62661958
0!
#62662541
1!
#62662958
0!
#62664541
1!
#62668750
0!
#62668916
1!
#62669375
0!
#62783333
1!
#62783958
0!
#62784541
1!
#62784958
0!
#62786541
1!
#62790791
0!
#62790958
1!
#62791375
0!
#62905375
1!
#62906000
0!
#62906583
1!
#62907000
0!
#62908583
1!
#62912791
0!
#62912958
1!
#62913416
0!
#63027375
1!
#63028000
0!
#63028583
1!
#63029000
0!
#63030583
1!
#63034833
0!
#63035000
1!
#63035416
0!
#63149416
1!
#63150041
0!
#63150583
1!
#63151041
0!
#63152583
1!
#63156833
0!
#63157000
1!
#63157416
0!
#63273833
1!
#63274458
0!
#63275000
1!
#63275458
0!
#63277000
1!
#63281250
0!
#63281416
1!
#63281833
0!
#63398250
1!
#63398875
0!
#63399416
1!
#63399875
0!
#63401416
1!
#63405666
0!
#63405833
1!
#63406250
0!
#63523250
1!
#63523875
0!
#63524458
1!
#63524875
0!
#63526458
1!
#63530666
0!
#63530833
1!
#63531291
0!
#63645250
1!
#63645916
0!
#63646458
1!
#63646916
0!
#63648458
1!
#63652708
0!
#63652875
1!
#63653291
0!
#63767291
1!
#63767916
0!
#63768500
1!
#63768916
0!
#63770500
1!
#63774708
0!
#63774875
1!
#63775333
0!
#63889291
1!
#63889916
0!
#63890500
1!
#63890916
0!
#63892500
1!
#63896750
0!
#63896916
1!
#63897333
0!
#64011333
1!
#64011958
0!
#64012500
1!
#64012958
0!
#64014500
1!
#64018750
0!
#64018916
1!
#64019333
0!
#64133333
1!
#64133958
0!
#64134541
1!
#64134958
0!
#64136541
1!
#64140750
0!
#64140916
1!
#64141375
0!
#64255333
1!
#64256000
0!
#64256541
1!
#64257000
0!
#64258541
1!
#64262791
0!
#64262958
1!
#64263375
0!
#64380583
1!
#64381208
0!
#64381750
1!
#64382208
0!
#64383750
1!
#64388000
0!
#64388166
1!
#64388583
0!
#64505583
1!
#64506208
0!
#64506791
1!
#64507208
0!
#64508791
1!
#64513000
0!
#64513166
1!
#64513625
0!
#64628583
1!
#64629250
0!
#64629791
1!
#64630250
0!
#64631791
1!
#64636041
0!
#64636208
1!
#64636625
0!
#64750625
1!
#64751250
0!
#64751833
1!
#64752250
0!
#64753833
1!
#64758041
0!
#64758208
1!
#64758666
0!
#64872625
1!
#64873250
0!
#64873833
1!
#64874250
0!
#64875833
1!
#64880083
0!
#64880250
1!
#64880666
0!
#64994666
1!
#64995291
0!
#64995833
1!
#64996291
0!
#64997833
1!
#65002083
0!
#65002250
1!
#65002666
0!
#65116666
1!
#65117291
0!
#65117875
1!
#65118291
0!
#65119875
1!
#65124083
0!
#65124250
1!
#65124708
0!
#65238666
1!
#65239333
0!
#65239875
1!
#65240333
0!
#65241875
1!
#65246125
0!
#65246291
1!
#65246708
0!
#65363083
1!
#65363750
0!
#65364291
1!
#65364750
0!
#65366291
1!
#65370541
0!
#65370708
1!
#65371125
0!
#65487500
1!
#65488166
0!
#65488708
1!
#65489166
0!
#65490708
1!
#65494958
0!
#65495125
1!
#65495541
0!
#65612750
1!
#65613375
0!
#65613916
1!
#65614375
0!
#65615916
1!
#65620166
0!
#65620333
1!
#65620750
0!
#65734750
1!
#65735375
0!
#65735958
1!
#65736375
0!
#65737958
1!
#65742166
0!
#65742333
1!
#65742791
0!
#65856750
1!
#65857416
0!
#65857958
1!
#65858416
0!
#65859958
1!
#65864208
0!
#65864375
1!
#65864791
0!
#65978791
1!
#65979416
0!
#65980000
1!
#65980416
0!
#65982000
1!
#65986208
0!
#65986375
1!
#65986833
0!
#66100791
1!
#66101416
0!
#66102000
1!
#66102416
0!
#66104000
1!
#66108250
0!
#66108416
1!
#66108833
0!
#66222833
1!
#66223458
0!
#66224000
1!
#66224458
0!
#66226000
1!
#66230250
0!
#66230416
1!
#66230833
0!
#66344833
1!
#66345458
0!
#66346041
1!
#66346458
0!
#66348041
1!
#66352250
0!
#66352416
1!
#66352875
0!
#66469833
1!
#66470500
0!
#66471041
1!
#66471500
0!
#66473041
1!
#66477291
0!
#66477458
1!
#66477875
0!
#66594875
1!
#66595500
0!
#66596083
1!
#66596500
0!
#66598083
1!
#66602291
0!
#66602458
1!
#66602916
0!
#66717875
1!
#66718500
0!
#66719083
1!
#66719500
0!
#66721083
1!
#66725333
0!
#66725500
1!
#66725916
0!
#66839916
1!
#66840541
0!
#66841083
1!
#66841541
0!
#66843083
1!
#66847333
0!
#66847500
1!
#66847916
0!
#66961916
1!
#66962541
0!
#66963125
1!
#66963541
0!
#66965125
1!
#66969333
0!
#66969541
1!
#66969958
0!
#67083916
1!
#67084583
0!
#67085125
1!
#67085583
0!
#67087125
1!
#67091375
0!
#67091541
1!
#67091958
0!
#67205958
1!
#67206583
0!
#67207166
1!
#67207583
0!
#67209166
1!
#67213375
0!
#67213541
1!
#67214000
0!
#67327958
1!
#67328583
0!
#67329166
1!
#67329583
0!
#67331166
1!
#67335416
0!
#67335583
1!
#67336000
0!
#67452375
1!
#67453000
0!
#67453583
1!
#67454000
0!
#67455583
1!
#67459833
0!
#67460000
1!
#67460416
0!
#67576791
1!
#67577416
0!
#67578000
1!
#67578416
0!
#67580000
1!
#67584250
0!
#67584416
1!
#67584833
0!
#67702041
1!
#67702666
0!
#67703208
1!
#67703666
0!
#67705208
1!
#67709458
0!
#67709625
1!
#67710041
0!
#67824041
1!
#67824666
0!
#67825250
1!
#67825666
0!
#67827250
1!
#67831458
0!
#67831625
1!
#67832083
0!
#67946041
1!
#67946666
0!
#67947250
1!
#67947666
0!
#67949250
1!
#67953500
0!
#67953666
1!
#67954083
0!
#68068083
1!
#68068708
0!
#68069291
1!
#68069708
0!
#68071291
1!
#68075500
0!
#68075666
1!
#68076125
0!
#68190083
1!
#68190708
0!
#68191291
1!
#68191708
0!
#68193291
1!
#68197541
0!
#68197708
1!
#68198125
0!
#68312125
1!
#68312750
0!
#68313291
1!
#68313750
0!
#68315291
1!
#68319541
0!
#68319708
1!
#68320125
0!
#68434125
1!
#68434750
0!
#68435333
1!
#68435750
0!
#68437333
1!
#68441541
0!
#68441708
1!
#68442166
0!
#68559333
1!
#68559958
0!
#68560541
1!
#68560958
0!
#68562541
1!
#68566791
0!
#68566958
1!
#68567375
0!
#68684375
1!
#68685000
0!
#68685541
1!
#68686000
0!
#68687541
1!
#68691791
0!
#68691958
1!
#68692375
0!
#68807166
1!
#68807791
0!
#68808375
1!
#68808791
0!
#68810375
1!
#68814625
0!
#68814791
1!
#68815208
0!
#68929208
1!
#68929833
0!
#68930375
1!
#68930833
0!
#68932375
1!
#68936625
0!
#68936791
1!
#68937208
0!
#69051208
1!
#69051833
0!
#69052416
1!
#69052833
0!
#69054416
1!
#69058625
0!
#69058791
1!
#69059250
0!
#69173208
1!
#69173875
0!
#69174416
1!
#69174875
0!
#69176416
1!
#69180666
0!
#69180833
1!
#69181250
0!
#69295250
1!
#69295875
0!
#69296458
1!
#69296875
0!
#69298458
1!
#69302666
0!
#69302833
1!
#69303291
0!
#69417250
1!
#69417875
0!
#69418458
1!
#69418875
0!
#69420458
1!
#69424708
0!
#69424875
1!
#69425291
0!
#69541666
1!
#69542291
0!
#69542875
1!
#69543291
0!
#69544875
1!
#69549125
0!
#69549291
1!
#69549708
0!
#69665875
1!
#69666541
0!
#69667083
1!
#69667541
0!
#69669083
1!
#69673333
0!
#69673500
1!
#69673916
0!
#69790916
1!
#69791541
0!
#69792125
1!
#69792541
0!
#69794125
1!
#69798333
0!
#69798500
1!
#69798958
0!
#69912916
1!
#69913541
0!
#69914125
1!
#69914541
0!
#69916125
1!
#69920375
0!
#69920541
1!
#69920958
0!
#70034958
1!
#70035583
0!
#70036125
1!
#70036583
0!
#70038125
1!
#70042375
0!
#70042541
1!
#70042958
0!
#70156958
1!
#70157583
0!
#70158166
1!
#70158583
0!
#70160166
1!
#70164375
0!
#70164541
1!
#70165000
0!
#70278958
1!
#70279625
0!
#70280166
1!
#70280625
0!
#70282166
1!
#70286416
0!
#70286583
1!
#70287000
0!
#70401000
1!
#70401625
0!
#70402208
1!
#70402625
0!
#70404208
1!
#70408416
0!
#70408583
1!
#70409041
0!
#70523000
1!
#70523625
0!
#70524208
1!
#70524625
0!
#70526208
1!
#70530458
0!
#70530625
1!
#70531041
0!
#70647833
1!
#70648458
0!
#70649041
1!
#70649458
0!
#70651041
1!
#70655250
0!
#70655416
1!
#70655875
0!
#70772833
1!
#70773458
0!
#70774041
1!
#70774458
0!
#70776041
1!
#70780291
0!
#70780458
1!
#70780875
0!
#70896250
1!
#70896875
0!
#70897458
1!
#70897875
0!
#70899458
1!
#70903708
0!
#70903875
1!
#70904291
0!
#71018291
1!
#71018916
0!
#71019458
1!
#71019916
0!
#71021458
1!
#71025708
0!
#71025875
1!
#71026291
0!
#71140291
1!
#71140916
0!
#71141500
1!
#71141916
0!
#71143500
1!
#71147708
0!
#71147875
1!
#71148333
0!
#71262291
1!
#71262958
0!
#71263500
1!
#71263958
0!
#71265500
1!
#71269750
0!
#71269916
1!
#71270333
0!
#71384333
1!
#71384958
0!
#71385541
1!
#71385958
0!
#71387541
1!
#71391750
0!
#71391916
1!
#71392375
0!
#71506333
1!
#71506958
0!
#71507541
1!
#71507958
0!
#71509541
1!
#71513791
0!
#71513958
1!
#71514375
0!
#71630750
1!
#71631375
0!
#71631958
1!
#71632375
0!
#71633958
1!
#71638208
0!
#71638375
1!
#71638791
0!
#71755166
1!
#71755791
0!
#71756375
1!
#71756791
0!
#71758375
1!
#71762625
0!
#71762791
1!
#71763208
0!
#71880208
1!
#71880833
0!
#71881375
1!
#71881833
0!
#71883375
1!
#71887625
0!
#71887791
1!
#71888208
0!
#72002208
1!
#72002833
0!
#72003416
1!
#72003833
0!
#72005416
1!
#72009625
0!
#72009791
1!
#72010250
0!
#72124208
1!
#72124875
0!
#72125416
1!
#72125875
0!
#72127416
1!
#72131666
0!
#72131833
1!
#72132250
0!
#72246250
1!
#72246875
0!
#72247458
1!
#72247875
0!
#72249458
1!
#72253666
0!
#72253833
1!
#72254291
0!
#72368250
1!
#72368875
0!
#72369458
1!
#72369875
0!
#72371458
1!
#72375708
0!
#72375875
1!
#72376291
0!
#72490291
1!
#72490916
0!
#72491458
1!
#72491916
0!
#72493458
1!
#72497708
0!
#72497875
1!
#72498291
0!
#72612291
1!
#72612916
0!
#72613500
1!
#72613916
0!
#72615500
1!
#72619708
0!
#72619916
1!
#72620333
0!
#72736916
1!
#72737541
0!
#72738125
1!
#72738541
0!
#72740125
1!
#72744333
0!
#72744500
1!
#72744958
0!
#72862125
1!
#72862750
0!
#72863333
1!
#72863750
0!
#72865333
1!
#72869541
0!
#72869750
1!
#72870166
0!
#72985541
1!
#72986166
0!
#72986750
1!
#72987166
0!
#72988750
1!
#72992958
0!
#72993166
1!
#72993583
0!
#73107583
1!
#73108208
0!
#73108750
1!
#73109208
0!
#73110750
1!
#73115000
0!
#73115166
1!
#73115583
0!
#73229583
1!
#73230208
0!
#73230791
1!
#73231208
0!
#73232791
1!
#73237000
0!
#73237166
1!
#73237625
0!
#73351583
1!
#73352208
0!
#73352791
1!
#73353208
0!
#73354791
1!
#73359041
0!
#73359208
1!
#73359625
0!
#73473625
1!
#73474250
0!
#73474833
1!
#73475250
0!
#73476833
1!
#73481041
0!
#73481208
1!
#73481666
0!
#73595625
1!
#73596250
0!
#73596833
1!
#73597250
0!
#73598833
1!
#73603083
0!
#73603250
1!
#73603666
0!
#73720041
1!
#73720666
0!
#73721250
1!
#73721666
0!
#73723250
1!
#73727500
0!
#73727666
1!
#73728083
0!
#73844458
1!
#73845083
0!
#73845666
1!
#73846083
0!
#73847666
1!
#73851916
0!
#73852083
1!
#73852500
0!
#73969500
1!
#73970125
0!
#73970666
1!
#73971125
0!
#73972666
1!
#73976916
0!
#73977083
1!
#73977500
0!
#74091500
1!
#74092125
0!
#74092708
1!
#74093125
0!
#74094708
1!
#74098916
0!
#74099083
1!
#74099541
0!
#74213500
1!
#74214166
0!
#74214708
1!
#74215166
0!
#74216708
1!
#74220958
0!
#74221125
1!
#74221541
0!
#74335541
1!
#74336166
0!
#74336750
1!
#74337166
0!
#74338750
1!
#74342958
0!
#74343125
1!
#74343583
0!
#74457541
1!
#74458166
0!
#74458750
1!
#74459166
0!
#74460750
1!
#74465000
0!
#74465166
1!
#74465583
0!
#74579583
1!
#74580208
0!
#74580750
1!
#74581208
0!
#74582750
1!
#74587000
0!
#74587166
1!
#74587583
0!
#74701583
1!
#74702208
0!
#74702791
1!
#74703208
0!
#74704791
1!
#74709000
0!
#74709166
1!
#74709625
0!
#74826791
1!
#74827416
0!
#74828000
1!
#74828416
0!
#74830000
1!
#74834250
0!
#74834416
1!
#74834833
0!
#74951833
1!
#74952458
0!
#74953000
1!
#74953458
0!
#74955000
1!
#74959250
0!
#74959416
1!
#74959833
0!
#75074833
1!
#75075458
0!
#75076041
1!
#75076458
0!
#75078041
1!
#75082250
0!
#75082416
1!
#75082875
0!
#75196833
1!
#75197500
0!
#75198041
1!
#75198500
0!
#75200041
1!
#75204291
0!
#75204458
1!
#75204875
0!
#75318875
1!
#75319500
0!
#75320083
1!
#75320500
0!
#75322083
1!
#75326291
0!
#75326458
1!
#75326916
0!
#75440875
1!
#75441500
0!
#75442083
1!
#75442500
0!
#75444083
1!
#75448333
0!
#75448500
1!
#75448916
0!
#75562916
1!
#75563541
0!
#75564083
1!
#75564541
0!
#75566083
1!
#75570333
0!
#75570500
1!
#75570916
0!
#75684916
1!
#75685541
0!
#75686125
1!
#75686541
0!
#75688125
1!
#75692333
0!
#75692500
1!
#75692958
0!
#75809333
1!
#75809958
0!
#75810541
1!
#75810958
0!
#75812541
1!
#75816750
0!
#75816916
1!
#75817375
0!
#75933750
1!
#75934375
0!
#75934958
1!
#75935375
0!
#75936958
1!
#75941166
0!
#75941333
1!
#75941791
0!
#76058958
1!
#76059583
0!
#76060166
1!
#76060583
0!
#76062166
1!
#76066416
0!
#76066583
1!
#76067000
0!
#76181000
1!
#76181625
0!
#76182166
1!
#76182625
0!
#76184166
1!
#76188416
0!
#76188583
1!
#76189000
0!
#76303000
1!
#76303625
0!
#76304208
1!
#76304625
0!
#76306208
1!
#76310416
0!
#76310583
1!
#76311041
0!
#76425000
1!
#76425666
0!
#76426208
1!
#76426666
0!
#76428208
1!
#76432458
0!
#76432625
1!
#76433041
0!
#76547041
1!
#76547666
0!
#76548250
1!
#76548666
0!
#76550250
1!
#76554458
0!
#76554625
1!
#76555083
0!
#76669041
1!
#76669666
0!
#76670250
1!
#76670666
0!
#76672250
1!
#76676500
0!
#76676666
1!
#76677083
0!
#76791083
1!
#76791708
0!
#76792250
1!
#76792708
0!
#76794250
1!
#76798500
0!
#76798666
1!
#76799083
0!
#76916083
1!
#76916708
0!
#76917291
1!
#76917708
0!
#76919291
1!
#76923500
0!
#76923666
1!
#76924125
0!
#77041083
1!
#77041750
0!
#77042291
1!
#77042750
0!
#77044291
1!
#77048541
0!
#77048708
1!
#77049125
0!
#77164125
1!
#77164750
0!
#77165333
1!
#77165750
0!
#77167333
1!
#77171541
0!
#77171708
1!
#77172166
0!
#77286125
1!
#77286750
0!
#77287333
1!
#77287750
0!
#77289333
1!
#77293583
0!
#77293750
1!
#77294166
0!
#77408166
1!
#77408791
0!
#77409333
1!
#77409791
0!
#77411333
1!
#77415583
0!
#77415750
1!
#77416166
0!
#77530166
1!
#77530791
0!
#77531375
1!
#77531791
0!
#77533375
1!
#77537583
0!
#77537750
1!
#77538208
0!
#77652166
1!
#77652833
0!
#77653375
1!
#77653833
0!
#77655375
1!
#77659625
0!
#77659791
1!
#77660208
0!
#77774208
1!
#77774833
0!
#77775416
1!
#77775833
0!
#77777416
1!
#77781625
0!
#77781791
1!
#77782250
0!
#77898625
1!
#77899250
0!
#77899833
1!
#77900250
0!
#77901833
1!
#77906041
0!
#77906208
1!
#77906666
0!
#78023041
1!
#78023666
0!
#78024250
1!
#78024666
0!
#78026250
1!
#78030458
0!
#78030625
1!
#78031083
0!
#78148250
1!
#78148875
0!
#78149458
1!
#78149875
0!
#78151458
1!
#78155666
0!
#78155875
1!
#78156291
0!
#78270291
1!
#78270916
0!
#78271458
1!
#78271916
0!
#78273458
1!
#78277708
0!
#78277875
1!
#78278291
0!
#78392291
1!
#78392916
0!
#78393500
1!
#78393916
0!
#78395500
1!
#78399708
0!
#78399875
1!
#78400333
0!
#78514291
1!
#78514916
0!
#78515500
1!
#78515916
0!
#78517500
1!
#78521750
0!
#78521916
1!
#78522333
0!
#78636333
1!
#78636958
0!
#78637541
1!
#78637958
0!
#78639541
1!
#78643750
0!
#78643916
1!
#78644333
0!
#78758333
1!
#78758958
0!
#78759541
1!
#78759958
0!
#78761541
1!
#78765750
0!
#78765958
1!
#78766375
0!
#78880375
1!
#78881000
0!
#78881541
1!
#78882000
0!
#78883541
1!
#78887791
0!
#78887958
1!
#78888375
0!
#79005583
1!
#79006208
0!
#79006791
1!
#79007208
0!
#79008791
1!
#79013000
0!
#79013166
1!
#79013583
0!
#79130583
1!
#79131208
0!
#79131791
1!
#79132208
0!
#79133791
1!
#79138041
0!
#79138208
1!
#79138625
0!
#79253416
1!
#79254041
0!
#79254625
1!
#79255041
0!
#79256625
1!
#79260833
0!
#79261000
1!
#79261458
0!
#79375416
1!
#79376041
0!
#79376625
1!
#79377041
0!
#79378625
1!
#79382875
0!
#79383041
1!
#79383458
0!
#79497458
1!
#79498083
0!
#79498625
1!
#79499083
0!
#79500625
1!
#79504875
0!
#79505041
1!
#79505458
0!
#79619458
1!
#79620083
0!
#79620666
1!
#79621083
0!
#79622666
1!
#79626875
0!
#79627041
1!
#79627500
0!
#79741458
1!
#79742125
0!
#79742666
1!
#79743125
0!
#79744666
1!
#79748916
0!
#79749083
1!
#79749500
0!
#79863500
1!
#79864125
0!
#79864708
1!
#79865125
0!
#79866708
1!
#79870916
0!
#79871083
1!
#79871541
0!
#79987916
1!
#79988541
0!
#79989125
1!
#79989541
0!
#79991125
1!
#79995333
0!
#79995500
1!
#79995958
0!
#80112125
1!
#80112750
0!
#80113333
1!
#80113750
0!
#80115333
1!
#80119541
0!
#80119708
1!
#80120166
0!
#80237125
1!
#80237791
0!
#80238333
1!
#80238791
0!
#80240333
1!
#80244583
0!
#80244750
1!
#80245166
0!
#80359166
1!
#80359791
0!
#80360375
1!
#80360791
0!
#80362375
1!
#80366583
0!
#80366750
1!
#80367208
0!
#80481166
1!
#80481791
0!
#80482375
1!
#80482791
0!
#80484375
1!
#80488625
0!
#80488791
1!
#80489208
0!
#80603208
1!
#80603833
0!
#80604375
1!
#80604833
0!
#80606375
1!
#80610625
0!
#80610791
1!
#80611208
0!
#80725208
1!
#80725833
0!
#80726416
1!
#80726833
0!
#80728416
1!
#80732625
0!
#80732791
1!
#80733250
0!
#80847208
1!
#80847875
0!
#80848416
1!
#80848875
0!
#80850416
1!
#80854666
0!
#80854833
1!
#80855250
0!
#80969250
1!
#80969875
0!
#80970458
1!
#80970875
0!
#80972458
1!
#80976666
0!
#80976833
1!
#80977291
0!
#81094041
1!
#81094708
0!
#81095250
1!
#81095708
0!
#81097250
1!
#81101500
0!
#81101666
1!
#81102083
0!
#81219083
1!
#81219708
0!
#81220291
1!
#81220708
0!
#81222291
1!
#81226500
0!
#81226666
1!
#81227125
0!
#81342500
1!
#81343125
0!
#81343708
1!
#81344125
0!
#81345708
1!
#81349916
0!
#81350083
1!
#81350541
0!
#81464500
1!
#81465125
0!
#81465708
1!
#81466125
0!
#81467708
1!
#81471958
0!
#81472125
1!
#81472541
0!
#81586541
1!
#81587166
0!
#81587708
1!
#81588166
0!
#81589708
1!
#81593958
0!
#81594125
1!
#81594541
0!
#81708541
1!
#81709166
0!
#81709750
1!
#81710166
0!
#81711750
1!
#81715958
0!
#81716125
1!
#81716583
0!
#81830541
1!
#81831208
0!
#81831750
1!
#81832208
0!
#81833750
1!
#81838000
0!
#81838166
1!
#81838583
0!
#81952583
1!
#81953208
0!
#81953791
1!
#81954208
0!
#81955791
1!
#81960000
0!
#81960166
1!
#81960625
0!
#82077000
1!
#82077625
0!
#82078208
1!
#82078625
0!
#82080208
1!
#82084416
0!
#82084583
1!
#82085041
0!
#82201416
1!
#82202041
0!
#82202625
1!
#82203041
0!
#82204625
1!
#82208833
0!
#82209000
1!
#82209458
0!
#82326416
1!
#82327041
0!
#82327625
1!
#82328041
0!
#82329625
1!
#82333875
0!
#82334041
1!
#82334458
0!
#82448458
1!
#82449083
0!
#82449625
1!
#82450083
0!
#82451625
1!
#82455875
0!
#82456041
1!
#82456458
0!
#82570458
1!
#82571083
0!
#82571666
1!
#82572083
0!
#82573666
1!
#82577875
0!
#82578041
1!
#82578500
0!
#82692458
1!
#82693125
0!
#82693666
1!
#82694125
0!
#82695666
1!
#82699916
0!
#82700083
1!
#82700500
0!
#82814500
1!
#82815125
0!
#82815708
1!
#82816125
0!
#82817708
1!
#82821916
0!
#82822083
1!
#82822541
0!
#82936500
1!
#82937125
0!
#82937708
1!
#82938125
0!
#82939708
1!
#82943958
0!
#82944125
1!
#82944541
0!
#83058541
1!
#83059166
0!
#83059708
1!
#83060166
0!
#83061708
1!
#83065958
0!
#83066125
1!
#83066541
0!
#83183125
1!
#83183791
0!
#83184333
1!
#83184791
0!
#83186333
1!
#83190583
0!
#83190750
1!
#83191166
0!
#83308375
1!
#83309000
0!
#83309541
1!
#83310000
0!
#83311541
1!
#83315791
0!
#83315958
1!
#83316375
0!
#83431791
1!
#83432416
0!
#83432958
1!
#83433416
0!
#83434958
1!
#83439208
0!
#83439375
1!
#83439791
0!
#83553791
1!
#83554416
0!
#83555000
1!
#83555416
0!
#83557000
1!
#83561208
0!
#83561416
1!
#83561833
0!
#83675833
1!
#83676458
0!
#83677000
1!
#83677458
0!
#83679000
1!
#83683250
0!
#83683416
1!
#83683833
0!
#83797833
1!
#83798458
0!
#83799041
1!
#83799458
0!
#83801041
1!
#83805250
0!
#83805416
1!
#83805875
0!
#83919833
1!
#83920458
0!
#83921041
1!
#83921458
0!
#83923041
1!
#83927291
0!
#83927458
1!
#83927875
0!
#84041875
1!
#84042500
0!
#84043083
1!
#84043500
0!
#84045083
1!
#84049291
0!
#84049458
1!
#84049875
0!
#84166291
1!
#84166916
0!
#84167500
1!
#84167916
0!
#84169500
1!
#84173708
0!
#84173875
1!
#84174291
0!
#84290708
1!
#84291333
0!
#84291916
1!
#84292333
0!
#84293916
1!
#84298125
0!
#84298291
1!
#84298750
0!
#84415708
1!
#84416333
0!
#84416916
1!
#84417333
0!
#84418916
1!
#84423166
0!
#84423333
1!
#84423750
0!
#84537750
1!
#84538375
0!
#84538916
1!
#84539375
0!
#84540916
1!
#84545166
0!
#84545333
1!
#84545750
0!
#84659750
1!
#84660375
0!
#84660958
1!
#84661375
0!
#84662958
1!
#84667166
0!
#84667333
1!
#84667791
0!
#84781750
1!
#84782375
0!
#84782958
1!
#84783375
0!
#84784958
1!
#84789208
0!
#84789375
1!
#84789791
0!
#84903791
1!
#84904416
0!
#84905000
1!
#84905416
0!
#84907000
1!
#84911208
0!
#84911375
1!
#84911833
0!
#85025791
1!
#85026416
0!
#85027000
1!
#85027416
0!
#85029000
1!
#85033250
0!
#85033416
1!
#85033833
0!
#85147833
1!
#85148458
0!
#85149000
1!
#85149458
0!
#85151000
1!
#85155250
0!
#85155416
1!
#85155833
0!
#85273041
1!
#85273666
0!
#85274250
1!
#85274666
0!
#85276250
1!
#85280458
0!
#85280625
1!
#85281083
0!
#85398041
1!
#85398666
0!
#85399250
1!
#85399666
0!
#85401250
1!
#85405500
0!
#85405666
1!
#85406083
0!
#85521083
1!
#85521708
0!
#85522250
1!
#85522708
0!
#85524250
1!
#85528500
0!
#85528666
1!
#85529083
0!
#85643083
1!
#85643708
0!
#85644291
1!
#85644708
0!
#85646291
1!
#85650500
0!
#85650666
1!
#85651125
0!
#85765083
1!
#85765750
0!
#85766291
1!
#85766750
0!
#85768291
1!
#85772541
0!
#85772708
1!
#85773125
0!
#85887125
1!
#85887750
0!
#85888333
1!
#85888750
0!
#85890333
1!
#85894541
0!
#85894708
1!
#85895166
0!
#86009125
1!
#86009750
0!
#86010333
1!
#86010750
0!
#86012333
1!
#86016583
0!
#86016750
1!
#86017166
0!
#86131166
1!
#86131791
0!
#86132333
1!
#86132791
0!
#86134333
1!
#86138583
0!
#86138750
1!
#86139166
0!
#86255583
1!
#86256208
0!
#86256750
1!
#86257208
0!
#86258750
1!
#86263000
0!
#86263166
1!
#86263583
0!
#86380000
1!
#86380625
0!
#86381166
1!
#86381625
0!
#86383166
1!
#86387416
0!
#86387583
1!
#86388000
0!
#86505208
1!
#86505833
0!
#86506416
1!
#86506833
0!
#86508416
1!
#86512625
0!
#86512791
1!
#86513250
0!
#86627208
1!
#86627833
0!
#86628416
1!
#86628833
0!
#86630416
1!
#86634666
0!
#86634833
1!
#86635250
0!
#86749250
1!
#86749875
0!
#86750416
1!
#86750875
0!
#86752416
1!
#86756666
0!
#86756833
1!
#86757250
0!
#86871250
1!
#86871875
0!
#86872458
1!
#86872875
0!
#86874458
1!
#86878666
0!
#86878833
1!
#86879291
0!
#86993250
1!
#86993916
0!
#86994458
1!
#86994916
0!
#86996458
1!
#87000708
0!
#87000875
1!
#87001291
0!
#87115291
1!
#87115916
0!
#87116500
1!
#87116916
0!
#87118500
1!
#87122708
0!
#87122875
1!
#87123333
0!
#87237291
1!
#87237916
0!
#87238500
1!
#87238916
0!
#87240500
1!
#87244750
0!
#87244916
1!
#87245333
0!
#87362333
1!
#87362958
0!
#87363500
1!
#87363958
0!
#87365500
1!
#87369750
0!
#87369916
1!
#87370333
0!
#87487333
1!
#87487958
0!
#87488541
1!
#87488958
0!
#87490541
1!
#87494750
0!
#87494916
1!
#87495375
0!
#87610333
1!
#87611000
0!
#87611541
1!
#87612000
0!
#87613541
1!
#87617791
0!
#87617958
1!
#87618375
0!
#87732375
1!
#87733000
0!
#87733583
1!
#87734000
0!
#87735583
1!
#87739791
0!
#87739958
1!
#87740416
0!
#87854375
1!
#87855000
0!
#87855583
1!
#87856000
0!
#87857583
1!
#87861833
0!
#87862000
1!
#87862416
0!
#87976416
1!
#87977041
0!
#87977583
1!
#87978041
0!
#87979583
1!
#87983833
0!
#87984000
1!
#87984416
0!
#88098416
1!
#88099041
0!
#88099625
1!
#88100041
0!
#88101625
1!
#88105833
0!
#88106000
1!
#88106458
0!
#88220416
1!
#88221083
0!
#88221625
1!
#88222083
0!
#88223625
1!
#88227875
0!
#88228041
1!
#88228458
0!
#88344833
1!
#88345500
0!
#88346041
1!
#88346500
0!
#88348041
1!
#88352291
0!
#88352458
1!
#88352875
0!
#88469250
1!
#88469916
0!
#88470458
1!
#88470916
0!
#88472458
1!
#88476708
0!
#88476875
1!
#88477291
0!
#88594500
1!
#88595125
0!
#88595666
1!
#88596125
0!
#88597666
1!
#88601916
0!
#88602083
1!
#88602500
0!
#88716500
1!
#88717125
0!
#88717708
1!
#88718125
0!
#88719708
1!
#88723916
0!
#88724125
1!
#88724541
0!
#88838500
1!
#88839166
0!
#88839708
1!
#88840166
0!
#88841708
1!
#88845958
0!
#88846125
1!
#88846541
0!
#88960541
1!
#88961166
0!
#88961750
1!
#88962166
0!
#88963750
1!
#88967958
0!
#88968125
1!
#88968583
0!
#89082541
1!
#89083166
0!
#89083750
1!
#89084166
0!
#89085750
1!
#89090000
0!
#89090166
1!
#89090583
0!
#89204583
1!
#89205208
0!
#89205791
1!
#89206208
0!
#89207791
1!
#89212000
0!
#89212166
1!
#89212583
0!
#89326583
1!
#89327208
0!
#89327791
1!
#89328208
0!
#89329791
1!
#89334000
0!
#89334208
1!
#89334625
0!
#89451791
1!
#89452416
0!
#89453000
1!
#89453416
0!
#89455000
1!
#89459250
0!
#89459416
1!
#89459833
0!
#89576833
1!
#89577458
0!
#89578041
1!
#89578458
0!
#89580041
1!
#89584250
0!
#89584416
1!
#89584833
0!
#89699625
1!
#89700250
0!
#89700833
1!
#89701250
0!
#89702833
1!
#89707083
0!
#89707250
1!
#89707666
0!
#89821666
1!
#89822291
0!
#89822875
1!
#89823291
0!
#89824875
1!
#89829083
0!
#89829250
1!
#89829708
0!
#89943666
1!
#89944291
0!
#89944875
1!
#89945291
0!
#89946875
1!
#89951083
0!
#89951291
1!
#89951708
0!
#90065708
1!
#90066333
0!
#90066875
1!
#90067333
0!
#90068875
1!
#90073125
0!
#90073291
1!
#90073708
0!
#90187708
1!
#90188333
0!
#90188916
1!
#90189333
0!
#90190916
1!
#90195125
0!
#90195291
1!
#90195750
0!
#90309708
1!
#90310333
0!
#90310916
1!
#90311333
0!
#90312916
1!
#90317166
0!
#90317333
1!
#90317750
0!
#90434125
1!
#90434750
0!
#90435333
1!
#90435750
0!
#90437333
1!
#90441583
0!
#90441750
1!
#90442166
0!
#90558375
1!
#90559000
0!
#90559541
1!
#90560000
0!
#90561541
1!
#90565791
0!
