Monitor bus sniffs/qwertyTOjklColonQuote.vcd
$timescale 1 ns $end
$scope module top $end
$var wire 1 ! Channel_0 $end
$var wire 1 " Channel_4 $end
$upscope $end
$enddefinitions $end
#0
1!
0"
#1089884458
1"
#1089885083
0"
#1089885666
1"
#1089886083
0"
#1089886875
1"
#1089887083
0"
#1089889458
1"
#1089889666
0"
#1089891250
1"
#1089891458
0"
#1089892250
1"
#1089892458
0"
#1205057041
1"
#1205057666
0"
#1205058250
1"
#1205058666
0"
#1205059458
1"
#1205059666
0"
#1205062041
1"
#1205062250
0"
#1205063625
1"
#1205064041
0"
#1205064833
1"
#1205065041
0"
#1652539000
1"
#1652539583
0"
#1652540166
1"
#1652540583
0"
#1652541375
1"
#1652541583
0"
#1652544000
1"
#1652544208
0"
#1652545791
1"
#1652546000
0"
#1652546791
1"
#1652547208
0"
#1776576583
1"
#1776577208
0"
#1776577791
1"
#1776578208
0"
#1776579000
1"
#1776579208
0"
#1776581583
1"
#1776581791
0"
#1776583208
1"
#1776583583
0"
#1776584375
1"
#1776584791
0"
#2153204416
1"
#2153205041
0"
#2153205625
1"
#2153206041
0"
#2153206833
1"
#2153207041
0"
#2153209416
1"
#2153209625
0"
#2153211208
1"
#2153211416
0"
#2153212000
1"
#2153212250
0"
#2277235416
1"
#2277236041
0"
#2277236625
1"
#2277237041
0"
#2277237833
1"
#2277238041
0"
#2277240416
1"
#2277240625
0"
#2277242000
1"
#2277242416
0"
#2277243000
1"
#2277243250
0"
#2675956458
1"
#2675957083
0"
#2675957666
1"
#2675958083
0"
#2675958875
1"
#2675959083
0"
#2675961458
1"
#2675961666
0"
#2675963291
1"
#2675963500
0"
#2675964083
1"
#2675964291
0"
#2675964458
1"
#2675964666
0"
#2799987458
1"
#2799988083
0"
#2799988666
1"
#2799989083
0"
#2799989875
1"
#2799990083
0"
#2799992458
1"
#2799992708
0"
#2799994083
1"
#2799994500
0"
#2799995083
1"
#2799995291
0"
#2799995458
1"
#2799995708
0"
#3158852250
1"
#3158852875
0"
#3158853458
1"
#3158853875
0"
#3158854666
1"
#3158854875
0"
#3158857250
1"
#3158857500
0"
#3158859083
1"
#3158859291
0"
#3158859666
1"
#3158859875
0"
#3282936083
1"
#3282936708
0"
#3282937291
1"
#3282937708
0"
#3282938458
1"
#3282938708
0"
#3282941083
1"
#3282941291
0"
#3282942666
1"
#3282943083
0"
#3282943458
1"
#3282943708
0"
#3659517708
1"
#3659518291
0"
#3659518916
1"
#3659519291
0"
#3659520083
1"
#3659520291
0"
#3659522708
1"
#3659522916
0"
#3659524500
1"
#3659524708
0"
#3659525291
1"
#3659525916
0"
#3792413708
1"
#3792414333
0"
#3792414916
1"
#3792415333
0"
#3792416125
1"
#3792416333
0"
#3792418708
1"
#3792418916
0"
#3792420333
1"
#3792420708
0"
#3792421333
1"
#3792421916
0"
#4200039375
1"
#4200040000
0"
#4200040583
1"
#4200041000
0"
#4200041791
1"
#4200042000
0"
#4200044375
1"
#4200044583
0"
#4200046208
1"
#4200046416
0"
#4200047000
1"
#4200047416
0"
#4324017583
1"
#4324018208
0"
#4324018791
1"
#4324019208
0"
#4324020000
1"
#4324020208
0"
#4324022583
1"
#4324022791
0"
#4324024166
1"
#4324024583
0"
#4324025166
1"
#4324025583
0"
#4762680708
1"
#4762681333
0"
#4762681916
1"
#4762682333
0"
#4762683125
1"
#4762683333
0"
#4762685708
1"
#4762685916
0"
#4762688291
1"
#4762688708
0"
#4895609750
1"
#4895610333
0"
#4895610916
1"
#4895611333
0"
#4895612125
1"
#4895612333
0"
#4895614750
1"
#4895614958
0"
#4895616333
1"
#4895616541
0"
#4895617333
1"
#4895617750
0"
#5312179625
1"
#5312180250
0"
#5312180833
1"
#5312181250
0"
#5312182041
1"
#5312182250
0"
#5312184625
1"
#5312184833
0"
#5312187250
1"
#5312187833
0"
#5445069041
1"
#5445069666
0"
#5445070250
1"
#5445070666
0"
#5445071458
1"
#5445071666
0"
#5445074041
1"
#5445074250
0"
#5445075625
1"
#5445075875
0"
#5445076625
1"
#5445077250
0"
#5834938291
1"
#5834938875
0"
#5834939500
1"
#5834939875
0"
#5834940666
1"
#5834940875
0"
#5834943291
1"
#5834943500
0"
#5834945666
1"
#5834945916
0"
#5967873916
1"
#5967874500
0"
#5967875083
1"
#5967875500
0"
#5967876291
1"
#5967876500
0"
#5967878916
1"
#5967879125
0"
#5967880500
1"
#5967880708
0"
#5967881291
1"
#5967881500
0"
#6388787208
1"
#6388787791
0"
#6388788416
1"
#6388788791
0"
#6388789583
1"
#6388789791
0"
#6388792208
1"
#6388792416
0"
#6388794791
1"
#6388795000
0"
#6388795208
1"
#6388795416
0"
#6521722833
1"
#6521723416
0"
#6521724000
1"
#6521724416
0"
#6521725208
1"
#6521725416
0"
#6521727833
1"
#6521728041
0"
#6521729416
1"
#6521729625
0"
#6521730416
1"
#6521730625
0"
#6521730833
1"
#6521731041
0"
#6969211333
1"
#6969211958
0"
#6969212541
1"
#6969212958
0"
#6969213750
1"
#6969213958
0"
#6969216375
1"
#6969216583
0"
#6969218958
1"
#6969219166
0"
#7093295166
1"
#7093295791
0"
#7093296375
1"
#7093296791
0"
#7093297541
1"
#7093297791
0"
#7093300166
1"
#7093300375
0"
#7093301750
1"
#7093301958
0"
#7093302750
1"
#7093302958
0"
#7997091041
1"
#7997091666
0"
#7997092250
1"
#7997092666
0"
#7997093458
1"
#7997093666
0"
#7997096041
1"
#7997096250
0"
#7997098041
1"
#7997098666
0"
#7997099041
1"
#7997099250
0"
#8121181458
1"
#8121182083
0"
#8121182666
1"
#8121183083
0"
#8121183833
1"
#8121184083
0"
#8121186458
1"
#8121186666
0"
#8121188041
1"
#8121188250
0"
#8121188458
1"
#8121189083
0"
#8121189458
1"
#8121189666
0"
#8426849541
1"
#8426850166
0"
#8426850750
1"
#8426851166
0"
#8426851958
1"
#8426852166
0"
#8426854541
1"
#8426854750
0"
#8426856541
1"
#8426857166
0"
#8426857333
1"
#8426857583
0"
#8559837958
1"
#8559838583
0"
#8559839166
1"
#8559839583
0"
#8559840375
1"
#8559840583
0"
#8559842958
1"
#8559843208
0"
#8559844583
1"
#8559844791
0"
#8559844958
1"
#8559845583
0"
#8559845791
1"
#8559846000
0"
#8878747500
1"
#8878748083
0"
#8878748708
1"
#8878749083
0"
#8878749875
1"
#8878750083
0"
#8878752500
1"
#8878752708
0"
#8878754500
1"
#8878755083
0"
#8878755291
1"
#8878755708
0"
#9011729333
1"
#9011729916
0"
#9011730500
1"
#9011730916
0"
#9011731708
1"
#9011731916
0"
#9011734333
1"
#9011734541
0"
#9011735916
1"
#9011736125
0"
#9011736333
1"
#9011736916
0"
#9011737125
1"
#9011737541
0"
#9317410625
1"
#9317411208
0"
#9317411833
1"
#9317412208
0"
#9317413000
1"
#9317413208
0"
#9317415625
1"
#9317415833
0"
#9317417625
1"
#9317418416
0"
#9441487833
1"
#9441488416
0"
#9441489041
1"
#9441489416
0"
#9441490208
1"
#9441490416
0"
#9441492833
1"
#9441493041
0"
#9441494416
1"
#9441494625
0"
#9441494833
1"
#9441495625
0"
#9720547666
1"
#9720548291
0"
#9720548875
1"
#9720549291
0"
#9720550083
1"
#9720550291
0"
#9720552666
1"
#9720552875
0"
#9720554666
1"
#9720555500
0"
#9720555666
1"
#9720555875
0"
#9853529500
1"
#9853530125
0"
#9853530708
1"
#9853531125
0"
#9853531916
1"
#9853532125
0"
#9853534500
1"
#9853534708
0"
#9853536083
1"
#9853536291
0"
#9853536500
1"
#9853537291
0"
#9853537500
1"
#9853537708
0"
#10230163916
1"
#10230164541
0"
#10230165125
1"
#10230165541
0"
#10230166333
1"
#10230166541
0"
#10230168916
1"
#10230169125
0"
#10230170708
1"
#10230170916
0"
#10367475958
1"
#10367476541
0"
#10367477125
1"
#10367477541
0"
#10367478333
1"
#10367478541
0"
#10367480958
1"
#10367481166
0"
#10367482541
1"
#10367482958
0"
#10646641416
1"
#10646642000
0"
#10646642625
1"
#10646643000
0"
#10646643791
1"
#10646644000
0"
#10646646416
1"
#10646646625
0"
#10646648416
1"
#10646649625
0"
#10761866791
1"
#10761867416
0"
#10761868000
1"
#10761868416
0"
#10761869208
1"
#10761869416
0"
#10761871791
1"
#10761872000
0"
#10761873416
1"
#10761873625
0"
#10761873791
1"
#10761875000
0"
#11058636875
1"
#11058637500
0"
#11058638083
1"
#11058638500
0"
#11058639291
1"
#11058639500
0"
#11058641875
1"
#11058642083
0"
#11058643875
1"
#11058644875
0"
#11173901875
1"
#11173902500
0"
#11173903083
1"
#11173903500
0"
#11173904291
1"
#11173904500
0"
#11173906875
1"
#11173907083
0"
#11173908458
1"
#11173908708
0"
#11173908875
1"
#11173909875
0"
#11448591916
1"
#11448592541
0"
#11448593125
1"
#11448593541
0"
#11448594333
1"
#11448594541
0"
#11448596916
1"
#11448597125
0"
#11448598916
1"
#11448599125
0"
#11448599333
1"
#11448599750
0"
#11448599916
1"
#11448600125
0"
#11563810708
1"
#11563811333
0"
#11563811916
1"
#11563812333
0"
#11563813125
1"
#11563813333
0"
#11563815708
1"
#11563815916
0"
#11563817333
1"
#11563817541
0"
#11563817708
1"
#11563817916
0"
#11563818125
1"
#11563818541
0"
#11563818708
1"
#11563818916
0"
#11820777333
1"
#11820777958
0"
#11820778541
1"
#11820778958
0"
#11820779750
1"
#11820779958
0"
#11820782333
1"
#11820782541
0"
#11820784333
1"
#11820784541
0"
#11820784750
1"
#11820785166
0"
#11953666750
1"
#11953667375
0"
#11953667958
1"
#11953668375
0"
#11953669166
1"
#11953669375
0"
#11953671750
1"
#11953671958
0"
#11953673333
1"
#11953673583
0"
#11953673750
1"
#11953673958
0"
#11953674166
1"
#11953674583
0"
#12228449208
1"
#12228449833
0"
#12228450416
1"
#12228450833
0"
#12228451625
1"
#12228451833
0"
#12228454208
1"
#12228454416
0"
#12228456208
1"
#12228456416
0"
#12228456625
1"
#12228456833
0"
#12228457000
1"
#12228457416
0"
#12374619666
1"
#12374620250
0"
#12374620833
1"
#12374621250
0"
#12374622041
1"
#12374622250
0"
#12374624666
1"
#12374624875
0"
#12374626250
1"
#12374626458
0"
#12374626666
1"
#12374626875
0"
#12374627041
1"
#12374627250
0"
#12374627458
1"
#12374627875
0"
#12680353750
1"
#12680354375
0"
#12680354958
1"
#12680355375
0"
#12680356166
1"
#12680356375
0"
#12680358750
1"
#12680358958
0"
#12680360750
1"
#12680360958
0"
#12680361166
1"
#12680361375
0"
#12680361541
1"
#12680361750
0"
#12813282791
1"
#12813283375
0"
#12813283958
1"
#12813284375
0"
#12813285166
1"
#12813285375
0"
#12813287791
1"
#12813288000
0"
#12813289375
1"
#12813289583
0"
#12813289791
1"
#12813290000
0"
#12813290166
1"
#12813290375
0"
#12813290583
1"
#12813290791
0"
#13495697500
1"
#13495698125
0"
#13495698708
1"
#13495699125
0"
#13495699916
1"
#13495700125
0"
#13495702500
1"
#13495702708
0"
#13495704500
1"
#13495704916
0"
#13495705500
1"
#13495705708
0"
#13610870083
1"
#13610870708
0"
#13610871291
1"
#13610871708
0"
#13610872500
1"
#13610872708
0"
#13610875083
1"
#13610875291
0"
#13610876708
1"
#13610876916
0"
#13610877083
1"
#13610877500
0"
#13610878083
1"
#13610878291
0"
#13867843291
1"
#13867843916
0"
#13867844500
1"
#13867844916
0"
#13867845708
1"
#13867845916
0"
#13867848333
1"
#13867848541
0"
#13867850333
1"
#13867850708
0"
#13867851125
1"
#13867851333
0"
#13983062125
1"
#13983062708
0"
#13983063291
1"
#13983063708
0"
#13983064500
1"
#13983064708
0"
#13983067125
1"
#13983067333
0"
#13983068708
1"
#13983068916
0"
#13983069125
1"
#13983069500
0"
#13983069916
1"
#13983070125
0"
#14200132875
1"
#14200133458
0"
#14200134041
1"
#14200134458
0"
#14200135250
1"
#14200135458
0"
#14200137875
1"
#14200138083
0"
#14200139875
1"
#14200140250
0"
#14200140666
1"
#14200141083
0"
#14324262875
1"
#14324263500
0"
#14324264083
1"
#14324264500
0"
#14324265250
1"
#14324265500
0"
#14324267875
1"
#14324268083
0"
#14324269458
1"
#14324269666
0"
#14324269875
1"
#14324270291
0"
#14324270666
1"
#14324271083
0"
#14528046000
1"
#14528046625
0"
#14528047208
1"
#14528047625
0"
#14528048416
1"
#14528048625
0"
#14528051000
1"
#14528051208
0"
#14528053000
1"
#14528053416
0"
#14528053583
1"
#14528053833
0"
#14643278000
1"
#14643278625
0"
#14643279208
1"
#14643279625
0"
#14643280375
1"
#14643280625
0"
#14643283000
1"
#14643283208
0"
#14643284583
1"
#14643284791
0"
#14643285000
1"
#14643285416
0"
#14643285583
1"
#14643285791
0"
#14869200541
1"
#14869201166
0"
#14869201750
1"
#14869202166
0"
#14869202958
1"
#14869203166
0"
#14869205541
1"
#14869205791
0"
#14869207541
1"
#14869207958
0"
#14869208166
1"
#14869208375
0"
#14869208541
1"
#14869208791
0"
#14984472166
1"
#14984472791
0"
#14984473375
1"
#14984473791
0"
#14984474541
1"
#14984474791
0"
#14984477166
1"
#14984477375
0"
#14984478750
1"
#14984478958
0"
#14984479166
1"
#14984479583
0"
#14984479750
1"
#14984479958
0"
#14984480166
1"
#14984480375
0"
